<?xml version="1.0" encoding="UTF-8" standalone="no"?>
<!-- Created with Inkscape (http://www.inkscape.org/) -->

<svg
   xmlns:dc="http://purl.org/dc/elements/1.1/"
   xmlns:cc="http://creativecommons.org/ns#"
   xmlns:rdf="http://www.w3.org/1999/02/22-rdf-syntax-ns#"
   xmlns:svg="http://www.w3.org/2000/svg"
   xmlns="http://www.w3.org/2000/svg"
   xmlns:sodipodi="http://sodipodi.sourceforge.net/DTD/sodipodi-0.dtd"
   xmlns:inkscape="http://www.inkscape.org/namespaces/inkscape"
   width="32"
   height="32"
   id="svg2"
   version="1.1"
   inkscape:version="0.48.5 r10040"
   sodipodi:docname="PurpleHerbTex.svg"
   inkscape:export-filename="C:\Data\Private\Unity\TurnBasedRPG\Assets\Textures\Resources\Herbs\PurpleHerbTex.png"
   inkscape:export-xdpi="90"
   inkscape:export-ydpi="90">
  <defs
     id="defs4" />
  <sodipodi:namedview
     id="base"
     pagecolor="#ffffff"
     bordercolor="#666666"
     borderopacity="1.0"
     inkscape:pageopacity="0"
     inkscape:pageshadow="2"
     inkscape:zoom="11.2"
     inkscape:cx="18.751137"
     inkscape:cy="16.421774"
     inkscape:document-units="px"
     inkscape:current-layer="layer1"
     showgrid="false"
     inkscape:window-width="1600"
     inkscape:window-height="848"
     inkscape:window-x="-8"
     inkscape:window-y="-8"
     inkscape:window-maximized="1"
     inkscape:snap-bbox="false"
     inkscape:snap-nodes="true"
     inkscape:bbox-nodes="true"
     inkscape:snap-page="true"
     inkscape:object-paths="true"
     inkscape:snap-intersection-paths="true"
     inkscape:object-nodes="true"
     inkscape:snap-global="false" />
  <metadata
     id="metadata7">
    <rdf:RDF>
      <cc:Work
         rdf:about="">
        <dc:format>image/svg+xml</dc:format>
        <dc:type
           rdf:resource="http://purl.org/dc/dcmitype/StillImage" />
        <dc:title></dc:title>
      </cc:Work>
    </rdf:RDF>
  </metadata>
  <g
     inkscape:label="Ebene 1"
     inkscape:groupmode="layer"
     id="layer1"
     transform="translate(0,-1020.3622)"
     style="display:inline">
    <path
       style="font-size:medium;font-style:normal;font-variant:normal;font-weight:normal;font-stretch:normal;text-indent:0;text-align:start;text-decoration:none;line-height:normal;letter-spacing:normal;word-spacing:normal;text-transform:none;direction:ltr;block-progression:tb;writing-mode:lr-tb;text-anchor:start;baseline-shift:baseline;color:#000000;fill:#b4006e;fill-opacity:1;stroke:#000000;stroke-width:0.50000000000000000;stroke-miterlimit:4;stroke-opacity:1;stroke-dasharray:none;marker:none;visibility:visible;display:inline;overflow:visible;enable-background:accumulate;font-family:Sans;-inkscape-font-specification:Sans"
       d="m 26.78125,1027.0854 c 0,0 -4.584024,0.5462 -6.977679,3.2679 -2.393654,2.7217 -2.587291,7.1027 -3.241071,11.5089 -0.936346,-3.657 -1.664747,-5.6577 -4.03125,-7.2232 -2.366503,-1.5655 -8.3482143,-0.3126 -8.3482143,-0.3126 0,0 7.1210443,1.3047 8.8705353,3.7144 1.749491,2.4097 2.813815,4.0556 2.852679,9.0092 -0.0038,0.01 -0.09375,0.1875 -0.09375,0.1875 l 0.09375,0.031 c -5e-6,2e-4 0,0.031 0,0.031 l 0.0625,0 0.78125,0.3125 c 0,0 0.118068,-0.2332 0.125,-0.25 l 0.03125,0 c 0,0 -1.4e-5,-0.031 0,-0.031 8.02e-4,0 -8.71e-4,-0.029 0,-0.031 5e-6,-2e-4 -9e-6,-0.031 0,-0.031 0.118513,-0.286 0.650778,-1.5534 1.53125,-3.2188 0.885091,-1.5921 1.262925,-2.6929 3.09375,-4.0937 1.830825,-1.4008 5.955357,1.7054 5.955357,1.7054 -0.411797,-2.2863 -3.690644,-4.7201 -6.361607,-3.6697 -2.670963,1.0504 -2.606846,3.7324 -3.59375,5.5893 -0.155817,0.2947 -0.140729,0.2801 -0.28125,0.5625 0.06651,-0.5942 0.05943,-0.5807 0.15625,-1.2813 0.408405,-5.0244 1.907554,-8.662 4.53125,-11.183 2.623696,-2.521 4.84375,-4.5943 4.84375,-4.5943 z"
       id="path2988"
       inkscape:connector-curvature="0"
       sodipodi:nodetypes="czczczccccccccsccczczccczc" />
  </g>
  <g
     inkscape:groupmode="layer"
     id="layer2"
     inkscape:label="Circle"
     style="display:none">
    <path
       sodipodi:type="arc"
       style="color:#000000;fill:#ffffff;fill-opacity:1;fill-rule:nonzero;stroke:#000000;stroke-width:6.75000048;stroke-linecap:round;stroke-linejoin:miter;stroke-miterlimit:4;stroke-opacity:1;stroke-dasharray:none;stroke-dashoffset:0;marker:none;visibility:visible;display:inline;overflow:visible;enable-background:accumulate"
       id="path3755"
       sodipodi:cx="117.68277"
       sodipodi:cy="114.07357"
       sodipodi:rx="13.637059"
       sodipodi:ry="13.637059"
       d="m 131.31983,114.07357 a 13.637059,13.637059 0 1 1 -27.27412,0 13.637059,13.637059 0 1 1 27.27412,0 z"
       transform="matrix(0.14814814,0,0,0.14814814,-1.4344835,-0.8998)" />
  </g>
</svg>
