<?xml version="1.0" encoding="UTF-8" standalone="no"?>
<!-- Created with Inkscape (http://www.inkscape.org/) -->

<svg
   xmlns:dc="http://purl.org/dc/elements/1.1/"
   xmlns:cc="http://creativecommons.org/ns#"
   xmlns:rdf="http://www.w3.org/1999/02/22-rdf-syntax-ns#"
   xmlns:svg="http://www.w3.org/2000/svg"
   xmlns="http://www.w3.org/2000/svg"
   xmlns:sodipodi="http://sodipodi.sourceforge.net/DTD/sodipodi-0.dtd"
   xmlns:inkscape="http://www.inkscape.org/namespaces/inkscape"
   width="32"
   height="32"
   id="svg2"
   version="1.1"
   inkscape:version="0.48.5 r10040"
   sodipodi:docname="HumanGreenTex.svg"
   inkscape:export-filename="C:\Data\Private\Unity\TurnBasedRPG\Assets\Textures\Resources\Creatures\HumanGreenTex.png"
   inkscape:export-xdpi="90"
   inkscape:export-ydpi="90">
  <defs
     id="defs4">
    <linearGradient
       id="linearGradient3772">
      <stop
         style="stop-color:#2c4b1c;stop-opacity:1"
         offset="0"
         id="stop3774" />
      <stop
         id="stop3759"
         offset="0.6605044"
         style="stop-color:#5e8f43;stop-opacity:1" />
      <stop
         style="stop-color:#66ab3f;stop-opacity:0;"
         offset="1"
         id="stop3776" />
    </linearGradient>
  </defs>
  <sodipodi:namedview
     id="base"
     pagecolor="#ffffff"
     bordercolor="#666666"
     borderopacity="1.0"
     inkscape:pageopacity="0"
     inkscape:pageshadow="2"
     inkscape:zoom="7.919596"
     inkscape:cx="0.024065643"
     inkscape:cy="19.113733"
     inkscape:document-units="px"
     inkscape:current-layer="layer1"
     showgrid="false"
     inkscape:window-width="1600"
     inkscape:window-height="848"
     inkscape:window-x="-8"
     inkscape:window-y="-8"
     inkscape:window-maximized="1"
     inkscape:snap-bbox="false"
     inkscape:snap-nodes="true"
     inkscape:bbox-nodes="true"
     inkscape:snap-page="true"
     inkscape:snap-global="true"
     inkscape:object-nodes="true" />
  <metadata
     id="metadata7">
    <rdf:RDF>
      <cc:Work
         rdf:about="">
        <dc:format>image/svg+xml</dc:format>
        <dc:type
           rdf:resource="http://purl.org/dc/dcmitype/StillImage" />
        <dc:title></dc:title>
      </cc:Work>
    </rdf:RDF>
  </metadata>
  <g
     inkscape:label="Ebene 1"
     inkscape:groupmode="layer"
     id="layer1"
     transform="translate(0,-1020.3622)"
     style="display:inline">
    <path
       sodipodi:type="arc"
       style="color:#000000;fill:#f1d492;fill-opacity:1;fill-rule:nonzero;stroke:#000000;stroke-width:0.86475182;stroke-linecap:round;stroke-linejoin:miter;stroke-miterlimit:4;stroke-opacity:1;stroke-dasharray:none;stroke-dashoffset:0;marker:none;visibility:visible;display:inline;overflow:visible;enable-background:accumulate"
       id="path2992"
       sodipodi:cx="17.614534"
       sodipodi:cy="10.218586"
       sodipodi:rx="7.1342025"
       sodipodi:ry="7.1342025"
       d="m 24.748737,10.218586 c 0,3.940111 -3.194091,7.134202 -7.134203,7.134202 -3.940111,0 -7.134202,-3.194091 -7.134202,-7.134202 0,-3.9401113 3.194091,-7.1342025 7.134202,-7.1342025 3.940112,0 7.134203,3.1940912 7.134203,7.1342025 z"
       transform="matrix(0.92512092,0,0,0.92512093,-0.29557429,1020.9088)" />
    <path
       sodipodi:type="arc"
       style="color:#000000;fill:#b3b3b3;fill-opacity:1;fill-rule:nonzero;stroke:#000000;stroke-width:0.7157197;stroke-linecap:round;stroke-linejoin:miter;stroke-miterlimit:4;stroke-opacity:1;stroke-dasharray:none;stroke-dashoffset:0;marker:none;visibility:visible;display:inline;overflow:visible;enable-background:accumulate"
       id="path3762"
       sodipodi:cx="14.584077"
       sodipodi:cy="9.3347025"
       sodipodi:rx="7.7655478"
       sodipodi:ry="7.7655478"
       d="M 7.0831337,11.344574 C 5.9731124,7.2019174 8.4315489,2.9437806 12.574205,1.8337593 16.716862,0.72373801 20.974998,3.1821744 22.08502,7.3248307 l -7.500943,2.0098718 z"
       transform="matrix(1.1161336,0,0,1.1193808,-0.41282932,1019.2167)"
       sodipodi:start="2.8797933"
       sodipodi:end="6.0213859" />
    <rect
       style="color:#000000;fill:#00a106;fill-opacity:1;fill-rule:nonzero;stroke:#000000;stroke-width:0.79999989000000005;stroke-linecap:round;stroke-linejoin:miter;stroke-miterlimit:4;stroke-opacity:1;stroke-dasharray:none;stroke-dashoffset:0;marker:none;visibility:visible;display:inline;overflow:visible;enable-background:accumulate"
       id="rect3764"
       width="7.1999998"
       height="6.1999998"
       x="12.4"
       y="1038.7622" />
    <rect
       style="color:#000000;fill:#00a106;fill-opacity:1;fill-rule:nonzero;stroke:#000000;stroke-width:0.79999989000000005;stroke-linecap:round;stroke-linejoin:miter;stroke-miterlimit:4;stroke-opacity:1;stroke-dasharray:none;stroke-dashoffset:0;marker:none;visibility:visible;display:inline;overflow:visible;enable-background:accumulate"
       id="rect3764-0"
       width="2.2"
       height="6.1999998"
       x="12.4"
       y="1044.9622" />
    <rect
       style="color:#000000;fill:#00a106;fill-opacity:1;fill-rule:nonzero;stroke:#000000;stroke-width:0.79999989000000005;stroke-linecap:round;stroke-linejoin:miter;stroke-miterlimit:4;stroke-opacity:1;stroke-dasharray:none;stroke-dashoffset:0;marker:none;visibility:visible;display:inline;overflow:visible;enable-background:accumulate"
       id="rect3764-0-9"
       width="2.2"
       height="6.1999998"
       x="17.4"
       y="1044.9622" />
    <rect
       style="color:#000000;fill:#00a106;fill-opacity:1;fill-rule:nonzero;stroke:#000000;stroke-width:0.79999989000000005;stroke-linecap:round;stroke-linejoin:miter;stroke-miterlimit:4;stroke-opacity:1;stroke-dasharray:none;stroke-dashoffset:0;marker:none;visibility:visible;display:inline;overflow:visible;enable-background:accumulate"
       id="rect3764-0-4"
       width="2.2"
       height="6.1999998"
       x="-1040.9622"
       y="19.599998"
       transform="matrix(0,-1,1,0,0,0)" />
    <rect
       style="color:#000000;fill:#00a106;fill-opacity:1;fill-rule:nonzero;stroke:#000000;stroke-width:0.79999989000000005;stroke-linecap:round;stroke-linejoin:miter;stroke-miterlimit:4;stroke-opacity:1;stroke-dasharray:none;stroke-dashoffset:0;marker:none;visibility:visible;display:inline;overflow:visible;enable-background:accumulate"
       id="rect3764-0-4-8"
       width="2.2"
       height="6.1999998"
       x="-1040.9622"
       y="6.1999998"
       transform="matrix(0,-1,1,0,0,0)" />
    <path
       sodipodi:type="arc"
       style="color:#000000;fill:#b3b3b3;fill-opacity:1;fill-rule:nonzero;stroke:#000000;stroke-width:2.38653207;stroke-linecap:round;stroke-linejoin:miter;stroke-miterlimit:4;stroke-opacity:1;stroke-dasharray:none;stroke-dashoffset:0;marker:none;visibility:visible;display:inline;overflow:visible;enable-background:accumulate"
       id="path3762-8"
       sodipodi:cx="14.584077"
       sodipodi:cy="9.3347025"
       sodipodi:rx="7.7655478"
       sodipodi:ry="7.7655478"
       d="m 6.8185291,9.3347021 c 2e-7,-4.2887936 3.4767549,-7.7655476 7.7655479,-7.7655474 4.288794,2e-7 7.765548,3.4767543 7.765548,7.7655477 l -7.765548,1e-7 z"
       transform="matrix(0.35190597,0,0,0.31931462,7.2677759,1048.1815)"
       sodipodi:start="3.1415927"
       sodipodi:end="6.2831853" />
    <path
       sodipodi:type="arc"
       style="color:#000000;fill:#b3b3b3;fill-opacity:1;fill-rule:nonzero;stroke:#000000;stroke-width:2.38653207;stroke-linecap:round;stroke-linejoin:miter;stroke-miterlimit:4;stroke-opacity:1;stroke-dasharray:none;stroke-dashoffset:0;marker:none;visibility:visible;display:inline;overflow:visible;enable-background:accumulate"
       id="path3762-8-2"
       sodipodi:cx="14.584077"
       sodipodi:cy="9.3347025"
       sodipodi:rx="7.7655478"
       sodipodi:ry="7.7655478"
       d="m 6.8185291,9.3347021 c 2e-7,-4.2887936 3.4767549,-7.7655476 7.7655479,-7.7655474 4.288794,2e-7 7.765548,3.4767543 7.765548,7.7655477 l -7.765548,1e-7 z"
       transform="matrix(0.35190597,0,0,0.31931462,14.467776,1048.1815)"
       sodipodi:start="3.1415927"
       sodipodi:end="6.2831853" />
  </g>
  <g
     inkscape:groupmode="layer"
     id="layer2"
     inkscape:label="Circle"
     style="display:none">
    <path
       sodipodi:type="arc"
       style="color:#000000;fill:#ffffff;fill-opacity:1;fill-rule:nonzero;stroke:#000000;stroke-width:6.75000048;stroke-linecap:round;stroke-linejoin:miter;stroke-miterlimit:4;stroke-opacity:1;stroke-dasharray:none;stroke-dashoffset:0;marker:none;visibility:visible;display:inline;overflow:visible;enable-background:accumulate"
       id="path3755"
       sodipodi:cx="117.68277"
       sodipodi:cy="114.07357"
       sodipodi:rx="13.637059"
       sodipodi:ry="13.637059"
       d="m 131.31983,114.07357 a 13.637059,13.637059 0 1 1 -27.27412,0 13.637059,13.637059 0 1 1 27.27412,0 z"
       transform="matrix(0.14814814,0,0,0.14814814,-1.4344835,-0.8998)" />
  </g>
</svg>
