<?xml version="1.0" encoding="UTF-8" standalone="no"?>
<!-- Created with Inkscape (http://www.inkscape.org/) -->

<svg
   xmlns:dc="http://purl.org/dc/elements/1.1/"
   xmlns:cc="http://creativecommons.org/ns#"
   xmlns:rdf="http://www.w3.org/1999/02/22-rdf-syntax-ns#"
   xmlns:svg="http://www.w3.org/2000/svg"
   xmlns="http://www.w3.org/2000/svg"
   xmlns:xlink="http://www.w3.org/1999/xlink"
   xmlns:sodipodi="http://sodipodi.sourceforge.net/DTD/sodipodi-0.dtd"
   xmlns:inkscape="http://www.inkscape.org/namespaces/inkscape"
   width="32"
   height="32"
   id="svg2"
   version="1.1"
   inkscape:version="0.48.5 r10040"
   sodipodi:docname="VenusFlytrapTex.svg"
   inkscape:export-filename="C:\Data\Private\Unity\TurnBasedRPG\Assets\Textures\Resources\Creatures\VenusFlytrapTex.png"
   inkscape:export-xdpi="90"
   inkscape:export-ydpi="90">
  <defs
     id="defs4">
    <linearGradient
       inkscape:collect="always"
       id="linearGradient3810">
      <stop
         style="stop-color:#28c300;stop-opacity:1;"
         offset="0"
         id="stop3812" />
      <stop
         style="stop-color:#ff1414;stop-opacity:1"
         offset="1"
         id="stop3814" />
    </linearGradient>
    <linearGradient
       id="linearGradient3772">
      <stop
         style="stop-color:#2c4b1c;stop-opacity:1"
         offset="0"
         id="stop3774" />
      <stop
         id="stop3759"
         offset="0.6605044"
         style="stop-color:#5e8f43;stop-opacity:1" />
      <stop
         style="stop-color:#66ab3f;stop-opacity:0;"
         offset="1"
         id="stop3776" />
    </linearGradient>
    <radialGradient
       inkscape:collect="always"
       xlink:href="#linearGradient3810"
       id="radialGradient3816"
       cx="17.376881"
       cy="1053.4586"
       fx="17.376881"
       fy="1053.4586"
       r="12.196471"
       gradientTransform="matrix(1.1633645,2.8103112e-8,-3.8426423e-8,1.5891153,-3.0353371,-623.00911)"
       gradientUnits="userSpaceOnUse" />
  </defs>
  <sodipodi:namedview
     id="base"
     pagecolor="#ffffff"
     bordercolor="#666666"
     borderopacity="1.0"
     inkscape:pageopacity="0"
     inkscape:pageshadow="2"
     inkscape:zoom="15.839192"
     inkscape:cx="1.6720166"
     inkscape:cy="19.095591"
     inkscape:document-units="px"
     inkscape:current-layer="layer1"
     showgrid="true"
     inkscape:window-width="1600"
     inkscape:window-height="848"
     inkscape:window-x="-8"
     inkscape:window-y="-8"
     inkscape:window-maximized="1"
     inkscape:snap-bbox="true"
     inkscape:snap-nodes="false"
     inkscape:bbox-nodes="true"
     inkscape:snap-page="true"
     inkscape:snap-global="false"
     inkscape:object-nodes="true"
     inkscape:object-paths="false"
     showguides="true"
     inkscape:guide-bbox="true"
     inkscape:snap-grids="true">
    <inkscape:grid
       type="xygrid"
       id="grid3811"
       empspacing="5"
       visible="true"
       enabled="true"
       snapvisiblegridlinesonly="true" />
  </sodipodi:namedview>
  <metadata
     id="metadata7">
    <rdf:RDF>
      <cc:Work
         rdf:about="">
        <dc:format>image/svg+xml</dc:format>
        <dc:type
           rdf:resource="http://purl.org/dc/dcmitype/StillImage" />
        <dc:title></dc:title>
      </cc:Work>
    </rdf:RDF>
  </metadata>
  <g
     inkscape:label="Ebene 1"
     inkscape:groupmode="layer"
     id="layer1"
     transform="translate(0,-1020.3622)"
     style="display:inline">
    <path
       style="font-size:medium;font-style:normal;font-variant:normal;font-weight:normal;font-stretch:normal;text-indent:0;text-align:start;text-decoration:none;line-height:normal;letter-spacing:normal;word-spacing:normal;text-transform:none;direction:ltr;block-progression:tb;writing-mode:lr-tb;text-anchor:start;baseline-shift:baseline;color:#000000;fill:url(#radialGradient3816);fill-opacity:1;stroke:#000000;stroke-width:0.5;stroke-miterlimit:4;stroke-opacity:1;stroke-dasharray:none;marker:none;visibility:visible;display:inline;overflow:visible;enable-background:accumulate;font-family:Sans;-inkscape-font-specification:Sans"
       d="m 14.917702,1035.5074 c 0.60075,2.028 1.990987,4.8441 2.277396,7.3522 0.132173,1.1575 0.0045,2.9995 -0.161887,4.6659 -0.304962,-0.3702 -0.631353,-0.7093 -0.971324,-1.0248 -0.927116,-0.8607 -2.096712,-1.2937 -3.291709,-1.6992 -1.194996,-0.4054 -2.41984,-0.7768 -3.4535959,-1.3215 -1.9100393,-1.0068 -1.6050733,-1.7917 -2.0408655,-2.9447 0.034613,-0.9219 -1.9081607,-0.2528 -1.8892203,0.8758 0.7076824,1.5409 0.4814861,2.2152 3.1206492,3.6061 1.2408453,0.654 2.5496055,1.0404 3.6964275,1.4295 1.146822,0.3891 2.11679,0.7819 2.698121,1.3215 0.945402,0.8663 1.053679,2.2514 1.359832,3.3443 l 3.191392,0.01 c 0,0 -0.09686,-0.5581 -0.09931,-0.6511 0.04092,-0.7711 0.227986,-2.2055 1.106229,-3.0208 1.485962,-1.3794 1.43109,-1.2461 3.723409,-2.4542 2.639163,-1.3909 3.231101,-4.2086 2.865496,-6.1281 -0.57623,0.026 -1.819691,-0.2403 -1.699817,0.3236 0.195553,1.0267 -0.06508,3.2875 -1.975115,4.2941 -2.256884,1.1894 -2.543232,1.276 -4.074164,2.6971 -0.03721,0.035 -0.07151,0.072 -0.107925,0.1078 -0.07009,-1.2959 -0.153495,-2.5953 -0.269813,-3.6139 -0.332031,-2.9078 -2.107289,-6.1217 -2.554648,-7.7062 -0.44736,-1.5845 -2.050304,-1.4907 -1.449554,0.5374 z"
       id="path2994"
       inkscape:connector-curvature="0"
       sodipodi:nodetypes="ccccccccssccccccccsccszzc" />
    <g
       id="g3858"
       transform="matrix(1.0872862,-0.13349557,0.13349557,1.0872862,-138.79733,-88.046471)">
      <path
         sodipodi:nodetypes="cccc"
         inkscape:connector-curvature="0"
         id="rect3818"
         d="m 18.792835,1023.2036 -0.532561,2.0209 -2.949602,-1.8865 z"
         style="color:#000000;fill:#ff1414;fill-opacity:1;fill-rule:nonzero;stroke:#000000;stroke-width:0.45643306;stroke-linecap:butt;stroke-linejoin:miter;stroke-miterlimit:4;stroke-opacity:1;stroke-dashoffset:0;marker:none;visibility:visible;display:inline;overflow:visible;enable-background:accumulate" />
      <path
         sodipodi:nodetypes="cccc"
         inkscape:connector-curvature="0"
         id="rect3818-7"
         d="m 11.651775,1024.9589 0.450629,1.6818 2.49582,-1.57 z"
         style="color:#000000;fill:#ff1414;fill-opacity:1;fill-rule:nonzero;stroke:#000000;stroke-width:0.45643309;stroke-linecap:butt;stroke-linejoin:miter;stroke-miterlimit:4;stroke-opacity:1;stroke-dashoffset:0;marker:none;visibility:visible;display:inline;overflow:visible;enable-background:accumulate" />
      <path
         sodipodi:nodetypes="cccc"
         inkscape:connector-curvature="0"
         id="rect3818-4"
         d="m 17.767867,1027.0124 -0.450629,1.6818 -2.49582,-1.57 z"
         style="color:#000000;fill:#ff1414;fill-opacity:1;fill-rule:nonzero;stroke:#000000;stroke-width:0.45643309;stroke-linecap:butt;stroke-linejoin:miter;stroke-miterlimit:4;stroke-opacity:1;stroke-dashoffset:0;marker:none;visibility:visible;display:inline;overflow:visible;enable-background:accumulate" />
      <path
         sodipodi:nodetypes="cssccc"
         inkscape:connector-curvature="0"
         id="path3011"
         d="m 18.840788,1022.7785 c 2.013085,2.825 2.013061,7.4054 -1.1e-5,10.2303 -2.013073,2.8249 -5.276905,2.8249 -7.289992,-10e-5 -2.013084,-2.8248 -2.0130591,-7.4052 1.3e-5,-10.2302 l 3.644982,9.7044 z"
         style="color:#000000;fill:#ef0000;fill-opacity:1;fill-rule:nonzero;stroke:#000000;stroke-width:0.45643309;stroke-linecap:butt;stroke-linejoin:miter;stroke-miterlimit:4;stroke-opacity:1;stroke-dashoffset:0;marker:none;visibility:visible;display:inline;overflow:visible;enable-background:accumulate" />
    </g>
    <g
       transform="matrix(0.7998101,-0.21430847,0.21430847,0.7998101,-227.0025,217.65733)"
       style="display:inline"
       id="g3858-0">
      <path
         sodipodi:nodetypes="cccc"
         inkscape:connector-curvature="0"
         id="rect3818-9"
         d="m 18.792835,1023.2036 -0.532561,2.0209 -2.949602,-1.8865 z"
         style="color:#000000;fill:#ff1414;fill-opacity:1;fill-rule:nonzero;stroke:#000000;stroke-width:0.60384691;stroke-linecap:butt;stroke-linejoin:miter;stroke-miterlimit:4;stroke-opacity:1;stroke-dashoffset:0;marker:none;visibility:visible;display:inline;overflow:visible;enable-background:accumulate" />
      <path
         sodipodi:nodetypes="cccc"
         inkscape:connector-curvature="0"
         id="rect3818-7-4"
         d="m 11.651775,1024.9589 0.450629,1.6818 2.49582,-1.57 z"
         style="color:#000000;fill:#ff1414;fill-opacity:1;fill-rule:nonzero;stroke:#000000;stroke-width:0.60384697;stroke-linecap:butt;stroke-linejoin:miter;stroke-miterlimit:4;stroke-opacity:1;stroke-dashoffset:0;marker:none;visibility:visible;display:inline;overflow:visible;enable-background:accumulate" />
      <path
         sodipodi:nodetypes="cccc"
         inkscape:connector-curvature="0"
         id="rect3818-4-8"
         d="m 17.767867,1027.0124 -0.450629,1.6818 -2.49582,-1.57 z"
         style="color:#000000;fill:#ff1414;fill-opacity:1;fill-rule:nonzero;stroke:#000000;stroke-width:0.60384697;stroke-linecap:butt;stroke-linejoin:miter;stroke-miterlimit:4;stroke-opacity:1;stroke-dashoffset:0;marker:none;visibility:visible;display:inline;overflow:visible;enable-background:accumulate" />
      <path
         sodipodi:nodetypes="cssccc"
         inkscape:connector-curvature="0"
         id="path3011-8"
         d="m 18.840788,1022.7785 c 2.013085,2.825 2.013061,7.4054 -1.1e-5,10.2303 -2.013073,2.8249 -5.276905,2.8249 -7.289992,-10e-5 -2.013084,-2.8248 -2.0130591,-7.4052 1.3e-5,-10.2302 l 3.644982,9.7044 z"
         style="color:#000000;fill:#ef0000;fill-opacity:1;fill-rule:nonzero;stroke:#000000;stroke-width:0.60384697;stroke-linecap:butt;stroke-linejoin:miter;stroke-miterlimit:4;stroke-opacity:1;stroke-dashoffset:0;marker:none;visibility:visible;display:inline;overflow:visible;enable-background:accumulate" />
    </g>
    <g
       transform="matrix(0.74940691,0,0,0.74940691,14.715316,264.68491)"
       style="display:inline"
       id="g3858-2">
      <path
         sodipodi:nodetypes="cccc"
         inkscape:connector-curvature="0"
         id="rect3818-45"
         d="m 18.792835,1023.2036 -0.532561,2.0209 -2.949602,-1.8865 z"
         style="color:#000000;fill:#ff1414;fill-opacity:1;fill-rule:nonzero;stroke:#000000;stroke-width:0.66719419;stroke-linecap:butt;stroke-linejoin:miter;stroke-miterlimit:4;stroke-opacity:1;stroke-dashoffset:0;marker:none;visibility:visible;display:inline;overflow:visible;enable-background:accumulate" />
      <path
         sodipodi:nodetypes="cccc"
         inkscape:connector-curvature="0"
         id="rect3818-7-5"
         d="m 11.651775,1024.9589 0.450629,1.6818 2.49582,-1.57 z"
         style="color:#000000;fill:#ff1414;fill-opacity:1;fill-rule:nonzero;stroke:#000000;stroke-width:0.66719425;stroke-linecap:butt;stroke-linejoin:miter;stroke-miterlimit:4;stroke-opacity:1;stroke-dashoffset:0;marker:none;visibility:visible;display:inline;overflow:visible;enable-background:accumulate" />
      <path
         sodipodi:nodetypes="cccc"
         inkscape:connector-curvature="0"
         id="rect3818-4-1"
         d="m 17.767867,1027.0124 -0.450629,1.6818 -2.49582,-1.57 z"
         style="color:#000000;fill:#ff1414;fill-opacity:1;fill-rule:nonzero;stroke:#000000;stroke-width:0.66719425;stroke-linecap:butt;stroke-linejoin:miter;stroke-miterlimit:4;stroke-opacity:1;stroke-dashoffset:0;marker:none;visibility:visible;display:inline;overflow:visible;enable-background:accumulate" />
      <path
         sodipodi:nodetypes="cssccc"
         inkscape:connector-curvature="0"
         id="path3011-7"
         d="m 18.840788,1022.7785 c 2.013085,2.825 2.013061,7.4054 -1.1e-5,10.2303 -2.013073,2.8249 -5.276905,2.8249 -7.289992,-10e-5 -2.013084,-2.8248 -2.0130591,-7.4052 1.3e-5,-10.2302 l 3.644982,9.7044 z"
         style="color:#000000;fill:#ef0000;fill-opacity:1;fill-rule:nonzero;stroke:#000000;stroke-width:0.66719425;stroke-linecap:butt;stroke-linejoin:miter;stroke-miterlimit:4;stroke-opacity:1;stroke-dashoffset:0;marker:none;visibility:visible;display:inline;overflow:visible;enable-background:accumulate" />
    </g>
  </g>
  <g
     inkscape:groupmode="layer"
     id="layer2"
     inkscape:label="Circle"
     style="display:none">
    <path
       sodipodi:type="arc"
       style="color:#000000;fill:#ffffff;fill-opacity:1;fill-rule:nonzero;stroke:#000000;stroke-width:6.75000048;stroke-linecap:round;stroke-linejoin:miter;stroke-miterlimit:4;stroke-opacity:1;stroke-dasharray:none;stroke-dashoffset:0;marker:none;visibility:visible;display:inline;overflow:visible;enable-background:accumulate"
       id="path3755"
       sodipodi:cx="117.68277"
       sodipodi:cy="114.07357"
       sodipodi:rx="13.637059"
       sodipodi:ry="13.637059"
       d="m 131.31983,114.07357 a 13.637059,13.637059 0 1 1 -27.27412,0 13.637059,13.637059 0 1 1 27.27412,0 z"
       transform="matrix(0.14814814,0,0,0.14814814,-1.4344835,-0.8998)" />
  </g>
</svg>
