<?xml version="1.0" encoding="UTF-8" standalone="no"?>
<!-- Created with Inkscape (http://www.inkscape.org/) -->

<svg
   xmlns:dc="http://purl.org/dc/elements/1.1/"
   xmlns:cc="http://creativecommons.org/ns#"
   xmlns:rdf="http://www.w3.org/1999/02/22-rdf-syntax-ns#"
   xmlns:svg="http://www.w3.org/2000/svg"
   xmlns="http://www.w3.org/2000/svg"
   xmlns:sodipodi="http://sodipodi.sourceforge.net/DTD/sodipodi-0.dtd"
   xmlns:inkscape="http://www.inkscape.org/namespaces/inkscape"
   width="32"
   height="32"
   id="svg2"
   version="1.1"
   inkscape:version="0.48.5 r10040"
   sodipodi:docname="BowTex.svg"
   inkscape:export-filename="C:\Data\Private\Unity\TurnBasedRPG\Assets\Textures\Resources\Items\BowTex.png"
   inkscape:export-xdpi="90"
   inkscape:export-ydpi="90">
  <defs
     id="defs4" />
  <sodipodi:namedview
     id="base"
     pagecolor="#ffffff"
     bordercolor="#666666"
     borderopacity="1.0"
     inkscape:pageopacity="0"
     inkscape:pageshadow="2"
     inkscape:zoom="7.919596"
     inkscape:cx="-3.5070251"
     inkscape:cy="22.018786"
     inkscape:document-units="px"
     inkscape:current-layer="g3805"
     showgrid="false"
     inkscape:window-width="1600"
     inkscape:window-height="848"
     inkscape:window-x="-8"
     inkscape:window-y="-8"
     inkscape:window-maximized="1"
     inkscape:snap-bbox="false"
     inkscape:snap-nodes="true"
     inkscape:bbox-nodes="true"
     inkscape:snap-page="true"
     inkscape:object-paths="true"
     inkscape:snap-smooth-nodes="true"
     inkscape:snap-global="false" />
  <metadata
     id="metadata7">
    <rdf:RDF>
      <cc:Work
         rdf:about="">
        <dc:format>image/svg+xml</dc:format>
        <dc:type
           rdf:resource="http://purl.org/dc/dcmitype/StillImage" />
        <dc:title></dc:title>
      </cc:Work>
    </rdf:RDF>
  </metadata>
  <g
     inkscape:label="Ebene 1"
     inkscape:groupmode="layer"
     id="layer1"
     transform="translate(0,-1020.3622)"
     style="display:inline">
    <g
       id="g3805"
       transform="matrix(-0.62209321,0.62209321,-0.62209321,-0.62209321,675.02711,1674.1625)">
      <g
         id="g3858"
         transform="matrix(0.95214568,0,0,0.95214568,-15.062981,22.820127)">
        <path
           inkscape:connector-curvature="0"
           id="path3856"
           d="m 20.11412,1076.8649 20.16659,-20.1666"
           style="fill:none;stroke:#f1f1f1;stroke-width:1.19378495;stroke-linecap:butt;stroke-linejoin:miter;stroke-miterlimit:4;stroke-opacity:1;stroke-dasharray:none" />
        <path
           inkscape:connector-curvature="0"
           id="use3830-9"
           d="m 41.625,1054.5312 a 1.1367711,1.1367711 0 0 0 -0.5625,0.3126 c -1.177465,1.0942 -1.501717,2.6114 -1.4375,4 0.06422,1.3885 0.398091,2.7823 0.5625,4.2812 0.328277,2.9929 0.183482,6.2553 -3.78125,10.2812 -4.035124,3.984 -7.283464,4.1414 -10.28125,3.8126 -1.498893,-0.1645 -2.923989,-0.4983 -4.3125,-0.5626 -1.388511,-0.064 -2.90573,0.2288 -4,1.4063 a 1.1393568,1.1393568 0 1 0 1.6875,1.5313 c 0.570235,-0.6136 1.147852,-0.7371 2.21875,-0.6876 1.070898,0.05 2.498269,0.3807 4.15625,0.5626 3.315962,0.3636 7.641133,-0.011 12.125,-4.4376 l 0.03125,0 c 4.42697,-4.4838 4.801218,-8.8402 4.4375,-12.1562 -0.181859,-1.658 -0.512972,-3.0854 -0.5625,-4.1562 -0.04953,-1.0709 0.07393,-1.6486 0.6875,-2.2188 a 1.1367711,1.1367711 0 0 0 -0.96875,-1.9688 z"
           style="font-size:medium;font-style:normal;font-variant:normal;font-weight:normal;font-stretch:normal;text-indent:0;text-align:start;text-decoration:none;line-height:normal;letter-spacing:normal;word-spacing:normal;text-transform:none;direction:ltr;block-progression:tb;writing-mode:lr-tb;text-anchor:start;baseline-shift:baseline;color:#000000;fill:#9e7b3b;fill-opacity:1;stroke:#000000;stroke-width:0.59689248;stroke-miterlimit:4;stroke-opacity:1;stroke-dasharray:none;marker:none;visibility:visible;display:inline;overflow:visible;enable-background:accumulate;font-family:Sans;-inkscape-font-specification:Sans" />
      </g>
    </g>
  </g>
  <g
     inkscape:groupmode="layer"
     id="layer2"
     inkscape:label="Circle"
     style="display:none">
    <path
       sodipodi:type="arc"
       style="color:#000000;fill:#ffffff;fill-opacity:1;fill-rule:nonzero;stroke:#000000;stroke-width:6.75000048;stroke-linecap:round;stroke-linejoin:miter;stroke-miterlimit:4;stroke-opacity:1;stroke-dasharray:none;stroke-dashoffset:0;marker:none;visibility:visible;display:inline;overflow:visible;enable-background:accumulate"
       id="path3755"
       sodipodi:cx="117.68277"
       sodipodi:cy="114.07357"
       sodipodi:rx="13.637059"
       sodipodi:ry="13.637059"
       d="m 131.31983,114.07357 a 13.637059,13.637059 0 1 1 -27.27412,0 13.637059,13.637059 0 1 1 27.27412,0 z"
       transform="matrix(0.14814814,0,0,0.14814814,-1.4344835,-0.8998)" />
  </g>
</svg>
