<?xml version="1.0" encoding="UTF-8" standalone="no"?>
<!-- Created with Inkscape (http://www.inkscape.org/) -->

<svg
   xmlns:dc="http://purl.org/dc/elements/1.1/"
   xmlns:cc="http://creativecommons.org/ns#"
   xmlns:rdf="http://www.w3.org/1999/02/22-rdf-syntax-ns#"
   xmlns:svg="http://www.w3.org/2000/svg"
   xmlns="http://www.w3.org/2000/svg"
   xmlns:sodipodi="http://sodipodi.sourceforge.net/DTD/sodipodi-0.dtd"
   xmlns:inkscape="http://www.inkscape.org/namespaces/inkscape"
   width="32"
   height="32"
   id="svg2"
   version="1.1"
   inkscape:version="0.48.5 r10040"
   sodipodi:docname="TinTex.svg"
   inkscape:export-filename="C:\Data\Private\Unity\TurnBasedRPG\Assets\Textures\Resources\Items\TinTex.png"
   inkscape:export-xdpi="90"
   inkscape:export-ydpi="90">
  <defs
     id="defs4">
    <inkscape:path-effect
       effect="envelope"
       id="path-effect4004"
       is_visible="true"
       yy="true"
       xx="false"
       bendpath1="m -14.558697,1220.5256 c 2.66717,3.5257 7.53761,3.4539 10.3866301,0.3207"
       bendpath2="m -4.4062015,1220.7394 c 0.1608855,5.9593 0.027835,7.9866 0,11.0121"
       bendpath3="m -14.168473,1231.7515 c 3.241242,2.86 6.8960369,2.6005 10.0744509,-0.3207"
       bendpath4="m -14.168473,1220.7394 0,11.0121"
       bendpath3-nodetypes="cc"
       bendpath1-nodetypes="cc"
       bendpath2-nodetypes="cc" />
  </defs>
  <sodipodi:namedview
     id="base"
     pagecolor="#ffffff"
     bordercolor="#666666"
     borderopacity="1.0"
     inkscape:pageopacity="0"
     inkscape:pageshadow="2"
     inkscape:zoom="10.948503"
     inkscape:cx="13.872713"
     inkscape:cy="17.89052"
     inkscape:document-units="px"
     inkscape:current-layer="layer1"
     showgrid="false"
     inkscape:window-width="1600"
     inkscape:window-height="848"
     inkscape:window-x="-8"
     inkscape:window-y="-8"
     inkscape:window-maximized="1"
     inkscape:snap-bbox="true"
     inkscape:snap-nodes="false"
     inkscape:bbox-nodes="true"
     inkscape:snap-page="true"
     inkscape:object-nodes="true"
     inkscape:snap-global="false" />
  <metadata
     id="metadata7">
    <rdf:RDF>
      <cc:Work
         rdf:about="">
        <dc:format>image/svg+xml</dc:format>
        <dc:type
           rdf:resource="http://purl.org/dc/dcmitype/StillImage" />
        <dc:title />
      </cc:Work>
    </rdf:RDF>
  </metadata>
  <g
     inkscape:label="Ebene 1"
     inkscape:groupmode="layer"
     id="layer1"
     transform="translate(0,-1020.3622)"
     style="display:inline">
    <path
       style="color:#000000;fill:#0000ca;fill-opacity:1;fill-rule:nonzero;stroke:#000000;stroke-width:0.30000001;stroke-linecap:round;stroke-linejoin:round;stroke-miterlimit:4;stroke-opacity:1;stroke-dashoffset:0;marker:none;visibility:visible;display:inline;overflow:visible;enable-background:accumulate"
       d="m -18.094604,1024.3702 c 4.929588,2.7753 9.675469,2.6112 14.268404,0 l 0,12.185 c -5.797747,3.4545 -10.312029,2.2105 -14.268404,0 z"
       id="rect3820-4"
       inkscape:connector-curvature="0"
       sodipodi:nodetypes="ccccc" />
    <g
       id="g2999">
      <g
         transform="matrix(0.66849629,0,0,0.66756597,37.632015,347.4038)"
         id="g3792">
        <path
           inkscape:connector-curvature="0"
           style="color:#000000;fill:#b3b3b3;fill-opacity:1;fill-rule:nonzero;stroke:#000000;stroke-width:1.49693656;stroke-linecap:round;stroke-linejoin:miter;stroke-miterlimit:4;stroke-opacity:1;stroke-dasharray:none;stroke-dashoffset:0;marker:none;visibility:visible;display:inline;overflow:visible;enable-background:accumulate"
           d="m -45.0625,-1.3125 0,26 c 0,3.995637 5.696422,7.21875 12.71875,7.21875 7.022328,0 12.6875,-3.223113 12.6875,-7.21875 l 0,-26 -25.40625,0 z"
           transform="translate(0,1020.3622)"
           id="path3762-1-7" />
        <path
           sodipodi:type="arc"
           style="color:#000000;fill:#b3b3b3;fill-opacity:1;fill-rule:nonzero;stroke:#000000;stroke-width:1.21200657;stroke-linecap:round;stroke-linejoin:miter;stroke-miterlimit:4;stroke-opacity:1;stroke-dasharray:none;stroke-dashoffset:0;marker:none;visibility:visible;display:inline;overflow:visible;enable-background:accumulate"
           id="path3762-1"
           sodipodi:cx="14.584077"
           sodipodi:cy="9.3347025"
           sodipodi:rx="7.7655478"
           sodipodi:ry="7.7655478"
           d="m 22.349625,9.3347025 c 0,4.2887935 -3.476755,7.7655475 -7.765548,7.7655475 -4.288794,0 -7.7655479,-3.476754 -7.7655479,-7.7655475 0,-4.2887936 3.4767539,-7.7655478 7.7655479,-7.7655478 4.288793,0 7.765548,3.4767542 7.765548,7.7655478 z"
           transform="matrix(1.6373667,0,0,0.93164587,-56.238696,1010.3605)" />
      </g>
      <g
         transform="translate(0,4.0188143)"
         id="g3955">
        <path
           style="color:#000000;fill:#0000ca;fill-opacity:1;fill-rule:nonzero;stroke:#000000;stroke-width:0.30000001;stroke-linecap:round;stroke-linejoin:round;stroke-miterlimit:4;stroke-opacity:1;stroke-dashoffset:0;marker:none;visibility:visible;display:inline;overflow:visible;enable-background:accumulate"
           d="m 8.8657977,1029.195 c 4.9295883,2.7753 9.6754693,2.6112 14.2684043,0 l 0,12.185 c -5.797747,3.4545 -10.312029,2.2105 -14.2684043,0 z"
           id="rect3820"
           inkscape:connector-curvature="0"
           sodipodi:nodetypes="ccccc" />
      </g>
      <g
         inkscape:path-effect="#path-effect4004"
         id="text2987-9-2"
         style="font-size:6.71361017px;font-style:normal;font-variant:normal;font-weight:normal;font-stretch:normal;text-align:center;line-height:89.99999762%;letter-spacing:0px;word-spacing:0px;writing-mode:lr-tb;text-anchor:middle;fill:#ffff00;fill-opacity:1;stroke:none;font-family:Arial Rounded MT Bold;-inkscape-font-specification:'Arial Rounded MT Bold,'"
         transform="matrix(1.1703102,0,0,0.85447431,26.852986,-7.1242616)">
        <path
           inkscape:connector-curvature="0"
           inkscape:original-d="m -9.4446875,1224.1849 c -4.2e-6,0.2907 -0.074855,0.5519 -0.2245519,0.7835 -0.1497051,0.2317 -0.3687936,0.4131 -0.6572646,0.5442 -0.288479,0.1311 -0.630497,0.1967 -1.026055,0.1967 -0.474238,0 -0.865428,-0.09 -1.173571,-0.2688 -0.218543,-0.129 -0.396108,-0.3011 -0.532696,-0.5163 -0.136589,-0.2153 -0.204883,-0.4246 -0.204883,-0.6278 0,-0.118 0.04098,-0.2191 0.12293,-0.3032 0.08195,-0.084 0.186306,-0.1262 0.313061,-0.1262 0.102714,0 0.189585,0.033 0.260612,0.098 0.07103,0.066 0.13167,0.1628 0.181936,0.2918 0.06119,0.1529 0.127299,0.2808 0.198327,0.3835 0.07102,0.1027 0.171007,0.1874 0.299949,0.2541 0.128938,0.067 0.298307,0.1 0.50811,0.1 0.288473,0 0.522859,-0.067 0.703159,-0.2016 0.180294,-0.1344 0.270442,-0.3021 0.270445,-0.5032 -3e-6,-0.1595 -0.04863,-0.289 -0.145876,-0.3884 -0.09725,-0.1 -0.222916,-0.1754 -0.376985,-0.2278 -0.154075,-0.053 -0.360051,-0.1082 -0.617928,-0.1672 -0.345298,-0.081 -0.634319,-0.1754 -0.867065,-0.2836 -0.232748,-0.1082 -0.417416,-0.2557 -0.554004,-0.4425 -0.136589,-0.1869 -0.204884,-0.4191 -0.204883,-0.6966 -1e-6,-0.2645 0.07212,-0.4994 0.216356,-0.7048 0.144237,-0.2055 0.352945,-0.3634 0.626123,-0.4737 0.273176,-0.1104 0.594432,-0.1656 0.96377,-0.1656 0.295029,0 0.550177,0.037 0.765444,0.1098 0.21526,0.073 0.393918,0.1705 0.535974,0.2918 0.1420485,0.1213 0.2458559,0.2486 0.3114223,0.3819 0.065559,0.1333 0.09834,0.2633 0.098344,0.3901 -4e-6,0.1158 -0.040981,0.2202 -0.1229299,0.3131 -0.081957,0.093 -0.1841253,0.1393 -0.3065054,0.1393 -0.11146,0 -0.196145,-0.028 -0.254055,-0.084 -0.05792,-0.056 -0.120748,-0.147 -0.188492,-0.2737 -0.08742,-0.1814 -0.19232,-0.3229 -0.314701,-0.4246 -0.122386,-0.1016 -0.319074,-0.1524 -0.590063,-0.1524 -0.251325,0 -0.454023,0.055 -0.608093,0.1656 -0.154074,0.1103 -0.23111,0.2431 -0.231109,0.3983 -10e-7,0.096 0.02622,0.1792 0.07868,0.2491 0.05245,0.07 0.124567,0.13 0.216356,0.1803 0.09179,0.05 0.184666,0.09 0.278641,0.118 0.09397,0.028 0.249136,0.07 0.465495,0.1246 0.270989,0.063 0.516302,0.1333 0.73594,0.2098 0.219631,0.077 0.406484,0.1693 0.5605602,0.2786 0.1540682,0.1093 0.2742662,0.2475 0.3605943,0.4147 0.08632,0.1672 0.1294819,0.3721 0.1294861,0.6146 z"
           id="path3996"
           style="line-height:89.99999762%;fill:#ffff00;font-family:Arial Rounded MT Bold;-inkscape-font-specification:'Arial Rounded MT Bold,'"
           d="m -9.6727176,1225.3149 c -0.00144,0.2795 -0.091089,0.529 -0.2682807,0.7361 -0.1772017,0.2071 -0.4359227,0.3518 -0.7733177,0.4 -0.337405,0.048 -0.735542,-0.012 -1.183305,-0.2146 -0.536827,-0.2433 -0.961414,-0.6031 -1.284525,-1.0097 -0.229183,-0.2904 -0.408337,-0.6045 -0.541342,-0.9278 -0.133006,-0.3234 -0.193832,-0.5846 -0.189628,-0.777 0.0024,-0.1117 0.04337,-0.1703 0.123726,-0.179 0.08035,-0.01 0.181995,0.04 0.307578,0.1415 0.101765,0.083 0.188916,0.1808 0.260463,0.2963 0.07154,0.1164 0.133079,0.2531 0.184529,0.4127 0.06266,0.1904 0.132105,0.36 0.207883,0.5075 0.07577,0.1476 0.183478,0.2968 0.324872,0.4421 0.141393,0.1456 0.328901,0.2793 0.565831,0.3883 0.325772,0.1499 0.59676,0.1799 0.805978,0.1146 0.209213,-0.065 0.314984,-0.2032 0.314786,-0.3971 -1.64e-4,-0.1537 -0.05729,-0.2919 -0.170978,-0.4195 -0.113687,-0.1282 -0.260137,-0.2451 -0.437505,-0.3594 -0.17737,-0.1148 -0.413041,-0.2605 -0.698804,-0.4583 -0.382614,-0.2668 -0.687465,-0.5508 -0.923664,-0.8199 -0.2362,-0.2691 -0.411815,-0.5538 -0.53363,-0.8374 -0.121811,-0.2837 -0.17079,-0.5549 -0.153402,-0.8075 0.01657,-0.2407 0.09735,-0.3921 0.244151,-0.4674 0.146813,-0.075 0.351791,-0.064 0.630038,0.011 0.27825,0.076 0.614078,0.2124 1.020948,0.3861 0.32501,0.1388 0.616672,0.2692 0.864894,0.4076 0.248206,0.1386 0.457445,0.2753 0.623148,0.4211 0.165695,0.1458 0.286692,0.2833 0.3613792,0.4204 0.074678,0.137 0.1101069,0.2653 0.1061351,0.3873 -0.00364,0.1113 -0.056407,0.2078 -0.1577993,0.2856 -0.101403,0.078 -0.225441,0.1057 -0.371737,0.08 -0.133242,-0.024 -0.233104,-0.073 -0.300323,-0.1428 -0.06723,-0.07 -0.139166,-0.1753 -0.215198,-0.3181 -0.09762,-0.2015 -0.215633,-0.3722 -0.353259,-0.5157 -0.137635,-0.1434 -0.361697,-0.269 -0.660521,-0.4036 -0.27714,-0.1248 -0.494094,-0.1912 -0.65972,-0.1827 -0.165616,0.01 -0.249623,0.079 -0.256394,0.2235 -0.0042,0.09 0.01912,0.185 0.07077,0.2851 0.05164,0.1001 0.124738,0.2034 0.220532,0.3078 0.09581,0.1041 0.194617,0.1973 0.296264,0.2772 0.101641,0.08 0.270628,0.2066 0.513856,0.3612 0.304758,0.1884 0.588718,0.349 0.84576,0.491 0.257024,0.1426 0.478649,0.2734 0.661569,0.4061 0.182911,0.1328 0.325711,0.2789 0.4276632,0.4472 0.1019424,0.1683 0.1517836,0.3668 0.1505911,0.5999 -2.6e-6,10e-5 -5.3e-6,3e-4 -7.9e-6,5e-4 z" />
        <path
           inkscape:connector-curvature="0"
           inkscape:original-d="m -6.7467865,1223.7555 -0.8916514,0 0,1.3604 c -1.5e-6,0.1945 -0.045895,0.342 -0.1376814,0.4426 -0.091789,0.1005 -0.2076161,0.1508 -0.3474818,0.1508 -0.146424,0 -0.2644366,-0.05 -0.354038,-0.1492 -0.089603,-0.099 -0.1344039,-0.2453 -0.1344034,-0.4376 l 0,-3.7043 c -5e-7,-0.2142 0.049171,-0.3671 0.1475159,-0.4589 0.098343,-0.092 0.2546005,-0.1377 0.4687726,-0.1377 l 1.2489675,0 c 0.3693332,0 0.6534375,0.028 0.8523138,0.085 0.1966843,0.055 0.3666006,0.1453 0.5097492,0.2721 0.1431411,0.1268 0.2518656,0.2819 0.3261739,0.4655 0.0743,0.1836 0.1114523,0.3901 0.1114564,0.6196 -4.1e-6,0.4895 -0.150798,0.8605 -0.4523819,1.1129 -0.3015914,0.2524 -0.7506947,0.3786 -1.3473114,0.3786 z m -0.2360254,-2.2029 -0.655626,0 0,1.4686 0.655626,0 c 0.2294667,0 0.4212372,-0.024 0.5753118,-0.072 0.1540693,-0.048 0.2715355,-0.1268 0.352399,-0.236 0.080857,-0.1093 0.1212876,-0.2525 0.1212908,-0.4295 -3.2e-6,-0.212 -0.062288,-0.3846 -0.1868534,-0.5179 -0.1398697,-0.1421 -0.4272522,-0.2131 -0.8621482,-0.2131 z"
           id="path3998"
           style="line-height:89.99999762%;fill:#ffff00;font-family:Arial Rounded MT Bold;-inkscape-font-specification:'Arial Rounded MT Bold,'"
           d="m -6.462226,1224.2462 c -0.336819,0.1614 -0.68244,0.2959 -1.0335513,0.4008 -0.00559,0.4375 -0.00837,0.8739 -0.00834,1.3091 1.03e-5,0.1867 -0.053762,0.3453 -0.162351,0.4719 -0.1085928,0.1265 -0.2461287,0.2101 -0.4133338,0.2445 -0.1750454,0.036 -0.3170655,0.01 -0.4253713,-0.072 -0.1083064,-0.081 -0.163217,-0.2167 -0.1636673,-0.4017 -0.0029,-1.1878 0.020639,-2.3816 0.070603,-3.5814 0.00867,-0.2082 0.075145,-0.3631 0.1974541,-0.4697 0.1223157,-0.1068 0.3118683,-0.181 0.5639061,-0.2388 0.4899282,-0.1124 0.9645105,-0.2758 1.4129683,-0.4842 0.3978415,-0.1849 0.682921,-0.333 0.8787872,-0.4073 0.1936976,-0.075 0.355344,-0.1088 0.4914773,-0.096 0.1361263,0.013 0.2396377,0.071 0.3141236,0.1805 0.074478,0.1094 0.1172411,0.2674 0.1268842,0.4783 0.020556,0.45 -0.1031097,0.9274 -0.4019984,1.4024 -0.2988963,0.475 -0.7714766,0.9389 -1.4475865,1.263 -3e-7,10e-5 -7e-7,10e-5 -1e-6,2e-4 z m -0.2364743,-2.0003 c -0.2438291,0.1026 -0.4936027,0.1918 -0.7478222,0.2667 -0.015856,0.4763 -0.028439,0.9513 -0.037747,1.4249 0.2572558,-0.076 0.5111223,-0.1684 0.7602221,-0.2749 0.2615522,-0.1118 0.4751307,-0.2438 0.6440629,-0.3821 0.1689264,-0.1382 0.2944848,-0.2899 0.3796539,-0.447 0.085162,-0.1572 0.1259258,-0.3205 0.124785,-0.488 -0.00137,-0.2007 -0.066022,-0.3212 -0.1954683,-0.3695 -0.1453475,-0.047 -0.4424705,0.066 -0.9276883,0.27 7e-7,-1e-4 1.5e-6,-1e-4 2.2e-6,-1e-4 z" />
        <path
           inkscape:connector-curvature="0"
           inkscape:original-d="m -10.749383,1231.1254 -0.229469,-0.6032 -1.953766,0 -0.229469,0.6163 c -0.0896,0.2404 -0.166093,0.4027 -0.229469,0.4868 -0.06338,0.084 -0.167185,0.1262 -0.311422,0.1262 -0.122384,0 -0.230563,-0.045 -0.324535,-0.1344 -0.09397,-0.09 -0.14096,-0.1912 -0.14096,-0.3048 0,-0.066 0.01093,-0.1334 0.03278,-0.2033 0.02185,-0.07 0.05791,-0.1672 0.108178,-0.2917 l 1.229299,-3.1208 c 0.03496,-0.09 0.07703,-0.1973 0.126208,-0.3229 0.04917,-0.1257 0.10162,-0.23 0.15735,-0.3131 0.05573,-0.083 0.128938,-0.1502 0.219635,-0.2016 0.09069,-0.051 0.202695,-0.077 0.336008,-0.077 0.135493,0 0.248589,0.026 0.339286,0.077 0.09069,0.051 0.163904,0.1175 0.219635,0.1983 0.05573,0.081 0.102712,0.1678 0.14096,0.2607 0.03824,0.093 0.08687,0.2169 0.145876,0.372 l 1.2555241,3.1011 c 0.098339,0.2361 0.1475112,0.4076 0.1475159,0.5147 -4.7e-6,0.1115 -0.046445,0.2136 -0.1393205,0.3065 -0.092885,0.093 -0.2048875,0.1393 -0.3360085,0.1393 -0.07649,0 -0.142056,-0.014 -0.196688,-0.041 -0.05464,-0.027 -0.100533,-0.064 -0.137681,-0.1114 -0.03716,-0.047 -0.07704,-0.1191 -0.119652,-0.2164 -0.04262,-0.097 -0.07922,-0.183 -0.109817,-0.2573 z m -1.927541,-1.3342 1.435821,0 -0.724466,-1.9833 z"
           id="path4000"
           style="line-height:89.99999762%;fill:#ffff00;font-family:Arial Rounded MT Bold;-inkscape-font-specification:'Arial Rounded MT Bold,'"
           d="m -10.907241,1231.7837 c -0.104591,-0.2208 -0.208529,-0.4444 -0.311734,-0.6707 -0.734283,-0.2401 -1.444213,-0.6176 -2.102432,-1.0982 -0.05634,0.158 -0.110382,0.3175 -0.161931,0.4788 -0.06041,0.1888 -0.113738,0.3069 -0.163769,0.3502 -0.05005,0.043 -0.143563,0.011 -0.277639,-0.1028 -0.113762,-0.097 -0.218367,-0.2348 -0.315012,-0.4137 -0.09672,-0.1795 -0.151727,-0.3348 -0.166519,-0.4621 -0.0086,-0.074 -0.0075,-0.1398 0.0032,-0.1984 0.01076,-0.059 0.03105,-0.1349 0.06205,-0.2275 0.249742,-0.7825 0.572894,-1.4919 0.943769,-2.2068 0.03158,-0.062 0.06998,-0.1362 0.115642,-0.2229 0.04565,-0.087 0.09631,-0.1499 0.151757,-0.1903 0.05545,-0.04 0.130399,-0.053 0.225585,-0.039 0.09519,0.014 0.215048,0.065 0.360966,0.1504 0.148305,0.087 0.274831,0.1786 0.377965,0.2798 0.103126,0.1012 0.188052,0.2049 0.254128,0.3126 0.06608,0.1078 0.122869,0.2158 0.170245,0.3249 0.04737,0.1093 0.108093,0.2532 0.182715,0.431 0.52613,1.1959 1.078229,2.3216 1.642887,3.3644 0.1321456,0.2385 0.2031236,0.406 0.2121326,0.5093 0.00937,0.1075 -0.035433,0.2039 -0.1339159,0.2851 -0.098485,0.081 -0.2225687,0.1132 -0.3721947,0.091 -0.08728,-0.013 -0.1632,-0.039 -0.227824,-0.077 -0.06463,-0.038 -0.120176,-0.085 -0.166736,-0.1404 -0.04654,-0.055 -0.09847,-0.136 -0.155687,-0.2432 -0.0572,-0.1068 -0.106413,-0.2021 -0.147698,-0.2844 1e-6,0 2e-6,0 3e-6,0 z m -2.221403,-2.3383 c 0.495916,0.3448 1.01825,0.6294 1.555647,0.8403 -0.321832,-0.7594 -0.634747,-1.5448 -0.932871,-2.3498 -0.225405,0.5042 -0.434516,1.0027 -0.622776,1.5095 z" />
        <path
           inkscape:connector-curvature="0"
           inkscape:original-d="m -7.3761873,1230.9451 -0.7703605,-3.0618 0,3.3175 c -1.4e-6,0.1836 -0.040978,0.3213 -0.1229299,0.413 -0.081954,0.092 -0.190679,0.1377 -0.3261739,0.1377 -0.131126,0 -0.2382115,-0.045 -0.3212568,-0.136 -0.083047,-0.091 -0.1245694,-0.2289 -0.1245689,-0.4147 l 0,-3.8026 c -5e-7,-0.2098 0.054635,-0.3513 0.1639065,-0.4246 0.1092702,-0.073 0.2567859,-0.1098 0.4425475,-0.1098 l 0.301588,0 c 0.1813883,0 0.3130597,0.016 0.3950147,0.049 0.081951,0.033 0.1425967,0.092 0.1819362,0.177 0.039336,0.085 0.084137,0.224 0.1344033,0.4163 l 0.6982417,2.6324 0.6982417,-2.6324 c 0.050261,-0.1923 0.095062,-0.331 0.1344033,-0.4163 0.039334,-0.085 0.099979,-0.1442 0.1819362,-0.177 0.081949,-0.033 0.2136208,-0.049 0.3950147,-0.049 l 0.3015879,0 c 0.185756,0 0.3332717,0.037 0.4425476,0.1098 0.1092659,0.073 0.1639013,0.2148 0.1639065,0.4246 l 0,3.8026 c -5.2e-6,0.1836 -0.040982,0.3213 -0.1229299,0.413 -0.081958,0.092 -0.1917754,0.1377 -0.3294521,0.1377 -0.1289443,0 -0.2349371,-0.046 -0.3179786,-0.1377 -0.08305,-0.092 -0.1245731,-0.2294 -0.1245689,-0.413 l 0,-3.3175 -0.7703606,3.0618 c -0.050268,0.1989 -0.091245,0.3448 -0.1229298,0.4376 -0.031692,0.093 -0.090152,0.1776 -0.17538,0.2541 -0.085234,0.076 -0.203247,0.1147 -0.354038,0.1147 -0.1136445,0 -0.2098029,-0.025 -0.2884755,-0.074 -0.078678,-0.049 -0.1398692,-0.112 -0.1835752,-0.1885 -0.043711,-0.076 -0.078131,-0.1612 -0.1032611,-0.2541 -0.025135,-0.093 -0.050813,-0.1896 -0.077036,-0.2901 z"
           id="path4002"
           style="line-height:89.99999762%;fill:#ffff00;font-family:Arial Rounded MT Bold;-inkscape-font-specification:'Arial Rounded MT Bold,'"
           d="m -7.0553052,1231.3824 c -0.3349304,-0.8469 -0.6774382,-1.7195 -1.0115696,-2.6269 0.03328,1.0525 0.086013,2.0987 0.1581969,3.1386 0.011983,0.1726 -0.024942,0.3137 -0.1112708,0.4205 -0.08631,0.107 -0.2060529,0.1757 -0.3607204,0.2004 -0.1496804,0.024 -0.2762564,-0 -0.3792984,-0.082 -0.103044,-0.078 -0.1624679,-0.2066 -0.1769167,-0.3838 -0.098574,-1.2086 -0.1680374,-2.4205 -0.2083914,-3.6356 -0.00668,-0.2011 0.054704,-0.3366 0.1833837,-0.4133 0.1286861,-0.076 0.3043479,-0.1246 0.5260496,-0.1567 0.1199791,-0.017 0.2398121,-0.038 0.3593956,-0.063 0.2157686,-0.045 0.3718461,-0.073 0.4691956,-0.07 0.097345,0 0.1696715,0.037 0.2173744,0.1024 0.047699,0.066 0.1027038,0.1804 0.1652478,0.3421 0.2893374,0.7369 0.5810996,1.4488 0.862722,2.1465 0.2320145,-0.9578 0.4794786,-1.9386 0.7272754,-2.9369 0.053483,-0.2183 0.1014424,-0.3825 0.1437588,-0.4924 0.042311,-0.1096 0.1081357,-0.2107 0.1966295,-0.3047 0.088483,-0.094 0.2306226,-0.2118 0.4217244,-0.3639 0.1059094,-0.084 0.2106054,-0.1713 0.3139847,-0.2608 0.1910223,-0.1653 0.3387504,-0.2697 0.4476171,-0.3053 0.1088591,-0.035 0.1634401,0.046 0.1651047,0.2472 0.010026,1.2175 -0.00792,2.4631 -0.053837,3.7368 -0.00666,0.1846 -0.049429,0.3593 -0.1277183,0.5205 -0.078309,0.1614 -0.180308,0.2978 -0.3092794,0.4081 -0.1207911,0.1033 -0.2209488,0.1401 -0.2999887,0.1145 -0.079044,-0.026 -0.1189494,-0.1281 -0.1175692,-0.3062 0.00829,-1.073 0.00936,-2.1378 0.00321,-3.1942 -0.264152,1.1895 -0.5365242,2.3608 -0.7900958,3.5009 -0.049652,0.2223 -0.089716,0.387 -0.1209551,0.4951 -0.031242,0.1082 -0.090307,0.2253 -0.1775375,0.3489 -0.08725,0.1231 -0.2096107,0.2289 -0.3699499,0.3109 -0.1208405,0.062 -0.2250825,0.087 -0.312263,0.08 -0.087186,-0.01 -0.1568448,-0.037 -0.2083241,-0.089 -0.051461,-0.051 -0.09351,-0.1153 -0.1257644,-0.1912 -0.032265,-0.076 -0.065407,-0.1553 -0.099432,-0.2383 4.7e-6,10e-5 9.5e-6,2e-4 1.42e-5,3e-4 z" />
      </g>
    </g>
    <text
       transform="scale(1.1703102,0.85447431)"
       sodipodi:linespacing="89.999998%"
       id="text2987-9-21"
       y="1208.8452"
       x="-22.716349"
       style="font-size:6.71361017px;font-style:normal;font-variant:normal;font-weight:normal;font-stretch:normal;text-align:center;line-height:89.99999762%;letter-spacing:0px;word-spacing:0px;writing-mode:lr-tb;text-anchor:middle;fill:#ffff00;fill-opacity:1;stroke:none;display:inline;font-family:Arial Rounded MT Bold;-inkscape-font-specification:'Arial Rounded MT Bold,'"
       xml:space="preserve"><tspan
         style="font-size:6.71361017px;font-style:normal;font-variant:normal;font-weight:normal;font-stretch:normal;text-align:center;line-height:89.99999762%;writing-mode:lr-tb;text-anchor:middle;fill:#ffff00;fill-opacity:1;font-family:Arial Rounded MT Bold;-inkscape-font-specification:'Arial Rounded MT Bold,'"
         y="1208.8452"
         x="-22.716349"
         id="tspan2989-4-6"
         sodipodi:role="line">SP</tspan><tspan
         id="tspan3014-8-8"
         style="font-size:6.71361017px;font-style:normal;font-variant:normal;font-weight:normal;font-stretch:normal;text-align:center;line-height:89.99999762%;writing-mode:lr-tb;text-anchor:middle;fill:#ffff00;fill-opacity:1;font-family:Arial Rounded MT Bold;-inkscape-font-specification:'Arial Rounded MT Bold,'"
         y="1214.8875"
         x="-22.716349"
         sodipodi:role="line">AM</tspan></text>
  </g>
  <g
     inkscape:groupmode="layer"
     id="layer2"
     inkscape:label="Circle"
     style="display:none">
    <path
       sodipodi:type="arc"
       style="color:#000000;fill:#ffffff;fill-opacity:1;fill-rule:nonzero;stroke:#000000;stroke-width:6.75000048;stroke-linecap:round;stroke-linejoin:miter;stroke-miterlimit:4;stroke-opacity:1;stroke-dasharray:none;stroke-dashoffset:0;marker:none;visibility:visible;display:inline;overflow:visible;enable-background:accumulate"
       id="path3755"
       sodipodi:cx="117.68277"
       sodipodi:cy="114.07357"
       sodipodi:rx="13.637059"
       sodipodi:ry="13.637059"
       d="m 131.31983,114.07357 a 13.637059,13.637059 0 1 1 -27.27412,0 13.637059,13.637059 0 1 1 27.27412,0 z"
       transform="matrix(0.14814814,0,0,0.14814814,-1.4344835,-0.8998)" />
  </g>
</svg>
