<?xml version="1.0" encoding="UTF-8" standalone="no"?>
<!-- Created with Inkscape (http://www.inkscape.org/) -->

<svg
   xmlns:dc="http://purl.org/dc/elements/1.1/"
   xmlns:cc="http://creativecommons.org/ns#"
   xmlns:rdf="http://www.w3.org/1999/02/22-rdf-syntax-ns#"
   xmlns:svg="http://www.w3.org/2000/svg"
   xmlns="http://www.w3.org/2000/svg"
   xmlns:sodipodi="http://sodipodi.sourceforge.net/DTD/sodipodi-0.dtd"
   xmlns:inkscape="http://www.inkscape.org/namespaces/inkscape"
   width="32"
   height="32"
   id="svg2"
   version="1.1"
   inkscape:version="0.48.5 r10040"
   sodipodi:docname="BagTex.svg"
   inkscape:export-filename="C:\Data\Private\Unity\TurnBasedRPG\Assets\Textures\Resources\Containers\BagTex.png"
   inkscape:export-xdpi="90"
   inkscape:export-ydpi="90">
  <defs
     id="defs4">
    <filter
       inkscape:collect="always"
       id="filter3952"
       x="-0.31751103"
       width="1.6350221"
       y="-0.31751103"
       height="1.6350221">
      <feGaussianBlur
         inkscape:collect="always"
         stdDeviation="2.7876712"
         id="feGaussianBlur3954" />
    </filter>
  </defs>
  <sodipodi:namedview
     id="base"
     pagecolor="#ffffff"
     bordercolor="#666666"
     borderopacity="1.0"
     inkscape:pageopacity="0"
     inkscape:pageshadow="2"
     inkscape:zoom="11.2"
     inkscape:cx="7.0683894"
     inkscape:cy="18.284936"
     inkscape:document-units="px"
     inkscape:current-layer="g3805"
     showgrid="false"
     inkscape:window-width="1600"
     inkscape:window-height="848"
     inkscape:window-x="-8"
     inkscape:window-y="-8"
     inkscape:window-maximized="1"
     inkscape:snap-bbox="false"
     inkscape:snap-nodes="true"
     inkscape:bbox-nodes="true"
     inkscape:snap-page="true"
     inkscape:object-paths="true"
     inkscape:snap-smooth-nodes="false"
     inkscape:snap-global="false"
     inkscape:object-nodes="true" />
  <metadata
     id="metadata7">
    <rdf:RDF>
      <cc:Work
         rdf:about="">
        <dc:format>image/svg+xml</dc:format>
        <dc:type
           rdf:resource="http://purl.org/dc/dcmitype/StillImage" />
        <dc:title />
      </cc:Work>
    </rdf:RDF>
  </metadata>
  <g
     inkscape:label="Ebene 1"
     inkscape:groupmode="layer"
     id="layer1"
     transform="translate(0,-1020.3622)"
     style="display:inline">
    <g
       id="g3805"
       transform="matrix(-0.62209321,0.62209321,-0.62209321,-0.62209321,675.02711,1674.1625)">
      <path
         style="color:#000000;fill:#977538;fill-opacity:1;fill-rule:nonzero;stroke:#000000;stroke-width:0.56832856;stroke-linecap:round;stroke-linejoin:round;stroke-miterlimit:4;stroke-opacity:1;stroke-dashoffset:0;marker:none;visibility:visible;display:inline;overflow:visible;enable-background:accumulate"
         d="m 27.099864,1032.8006 c 8.533238,8.5333 6.061611,12.6664 0,15.3121 -4.459157,1.9463 -10.97013,0.6524 -10.97013,0.6524 0,0 -0.918587,8.2513 -7.2851137,1.8847 -6.3665272,-6.3665 1.2022207,-7.0152 1.2022207,-7.0152 0,0 -0.9852442,-7.6183 1.495988,-12.0463 2.481232,-4.4279 7.023801,-7.3209 15.557035,1.2123 z"
         id="path2993"
         inkscape:connector-curvature="0"
         sodipodi:nodetypes="zsczczz" />
      <path
         style="color:#000000;fill:#977538;fill-opacity:1;fill-rule:nonzero;stroke:#000000;stroke-width:0.56832856;stroke-linecap:round;stroke-linejoin:round;stroke-miterlimit:4;stroke-opacity:1;stroke-dashoffset:0;marker:none;visibility:visible;display:inline;overflow:visible;enable-background:accumulate"
         d="m 5.3834912,1041.7207 c 1.683941,-1.1876 2.5884674,1.4165 4.0600921,1.8767 1.4804467,0.4629 2.8504147,1.2216 4.3806127,2.7518 1.308057,1.3081 2.132196,2.6006 2.695586,3.9299 0.750817,1.7716 1.282013,2.9987 0.403382,3.8773 -0.658036,0.658 -3.42561,-0.3023 -4.564586,-0.7827 -2.000015,-0.8435 -1.889148,-0.9172 -3.8166696,-2.4599 -1.9678238,-1.5749 -2.5081514,-2.5048 -2.9090831,-4.0009 -0.4275013,-1.5952 -1.7105451,-4.1616 -0.2493341,-5.1922 z"
         id="path2993-7-4"
         inkscape:connector-curvature="0"
         sodipodi:nodetypes="sssssssss" />
      <path
         sodipodi:type="arc"
         style="color:#000000;fill:#4d3c1d;fill-opacity:1;fill-rule:nonzero;stroke:#000000;stroke-width:0;stroke-linecap:round;stroke-linejoin:round;stroke-miterlimit:4;stroke-opacity:1;stroke-dasharray:none;stroke-dashoffset:0;marker:none;visibility:visible;display:inline;overflow:visible;filter:url(#filter3952);enable-background:accumulate"
         id="path2993-7-0"
         sodipodi:cx="-22.053572"
         sodipodi:cy="17.625"
         sodipodi:rx="10.535714"
         sodipodi:ry="10.535714"
         d="m -11.517858,17.625 c 0,5.818714 -4.716999,10.535714 -10.535714,10.535714 -5.818714,0 -10.535714,-4.717 -10.535714,-10.535714 0,-5.818714 4.717,-10.5357141 10.535714,-10.5357141 5.818715,0 10.535714,4.7170001 10.535714,10.5357141 z"
         transform="matrix(-0.229389,-0.229389,0.1162049,-0.1162049,4.4400049,1045.6918)" />
      <path
         style="fill:none;stroke:#000000;stroke-width:1.13665724px;stroke-linecap:butt;stroke-linejoin:miter;stroke-opacity:1"
         d="m 22.507587,1034.7227 c -3.514196,3.023 -8.748802,4.7746 -9.286085,8.8801"
         id="path3956"
         inkscape:connector-curvature="0"
         sodipodi:nodetypes="cc" />
      <path
         style="fill:none;stroke:#000000;stroke-width:1.13665724px;stroke-linecap:butt;stroke-linejoin:miter;stroke-opacity:1"
         d="m 16.925788,1048.9309 c 0,0 -1.301651,-3.6831 -2.435694,-4.6684 -1.134043,-0.9854 -4.6176701,-1.5731 -4.6176701,-1.5731"
         id="path3958"
         inkscape:connector-curvature="0"
         sodipodi:nodetypes="czc" />
      <path
         style="fill:none;stroke:#000000;stroke-width:1.13665724px;stroke-linecap:butt;stroke-linejoin:miter;stroke-opacity:1;display:inline"
         d="m 16.922175,1030.8118 c -3.514196,3.0231 -4.638568,7.87 -5.175851,11.9755"
         id="path3956-9"
         inkscape:connector-curvature="0"
         sodipodi:nodetypes="cc" />
    </g>
  </g>
  <g
     inkscape:groupmode="layer"
     id="layer2"
     inkscape:label="Circle"
     style="display:none">
    <path
       sodipodi:type="arc"
       style="color:#000000;fill:#ffffff;fill-opacity:1;fill-rule:nonzero;stroke:#000000;stroke-width:6.75000048;stroke-linecap:round;stroke-linejoin:miter;stroke-miterlimit:4;stroke-opacity:1;stroke-dasharray:none;stroke-dashoffset:0;marker:none;visibility:visible;display:inline;overflow:visible;enable-background:accumulate"
       id="path3755"
       sodipodi:cx="117.68277"
       sodipodi:cy="114.07357"
       sodipodi:rx="13.637059"
       sodipodi:ry="13.637059"
       d="m 131.31983,114.07357 a 13.637059,13.637059 0 1 1 -27.27412,0 13.637059,13.637059 0 1 1 27.27412,0 z"
       transform="matrix(0.14814814,0,0,0.14814814,-1.4344835,-0.8998)" />
  </g>
</svg>
