<?xml version="1.0" encoding="UTF-8" standalone="no"?>
<!-- Created with Inkscape (http://www.inkscape.org/) -->

<svg
   xmlns:dc="http://purl.org/dc/elements/1.1/"
   xmlns:cc="http://creativecommons.org/ns#"
   xmlns:rdf="http://www.w3.org/1999/02/22-rdf-syntax-ns#"
   xmlns:svg="http://www.w3.org/2000/svg"
   xmlns="http://www.w3.org/2000/svg"
   xmlns:sodipodi="http://sodipodi.sourceforge.net/DTD/sodipodi-0.dtd"
   xmlns:inkscape="http://www.inkscape.org/namespaces/inkscape"
   width="32"
   height="32"
   id="svg2"
   version="1.1"
   inkscape:version="0.48.5 r10040"
   sodipodi:docname="SundewTex.svg"
   inkscape:export-filename="C:\Data\Private\Unity\TurnBasedRPG\Assets\Textures\Resources\Creatures\SundewTex.png"
   inkscape:export-xdpi="90"
   inkscape:export-ydpi="90">
  <defs
     id="defs4">
    <linearGradient
       id="linearGradient3772">
      <stop
         style="stop-color:#2c4b1c;stop-opacity:1"
         offset="0"
         id="stop3774" />
      <stop
         id="stop3759"
         offset="0.6605044"
         style="stop-color:#5e8f43;stop-opacity:1" />
      <stop
         style="stop-color:#66ab3f;stop-opacity:0;"
         offset="1"
         id="stop3776" />
    </linearGradient>
  </defs>
  <sodipodi:namedview
     id="base"
     pagecolor="#ffffff"
     bordercolor="#666666"
     borderopacity="1.0"
     inkscape:pageopacity="0"
     inkscape:pageshadow="2"
     inkscape:zoom="11.2"
     inkscape:cx="24.072922"
     inkscape:cy="21.550493"
     inkscape:document-units="px"
     inkscape:current-layer="layer1"
     showgrid="true"
     inkscape:window-width="1600"
     inkscape:window-height="848"
     inkscape:window-x="-8"
     inkscape:window-y="-8"
     inkscape:window-maximized="1"
     inkscape:snap-bbox="true"
     inkscape:snap-nodes="false"
     inkscape:bbox-nodes="true"
     inkscape:snap-page="true"
     inkscape:snap-global="true"
     inkscape:object-nodes="true"
     inkscape:object-paths="false"
     showguides="true"
     inkscape:guide-bbox="true"
     inkscape:snap-grids="true">
    <inkscape:grid
       type="xygrid"
       id="grid3811"
       empspacing="5"
       visible="true"
       enabled="true"
       snapvisiblegridlinesonly="true" />
  </sodipodi:namedview>
  <metadata
     id="metadata7">
    <rdf:RDF>
      <cc:Work
         rdf:about="">
        <dc:format>image/svg+xml</dc:format>
        <dc:type
           rdf:resource="http://purl.org/dc/dcmitype/StillImage" />
        <dc:title></dc:title>
      </cc:Work>
    </rdf:RDF>
  </metadata>
  <g
     inkscape:label="Ebene 1"
     inkscape:groupmode="layer"
     id="layer1"
     transform="translate(0,-1020.3622)"
     style="display:inline">
    <path
       style="font-size:medium;font-style:normal;font-variant:normal;font-weight:normal;font-stretch:normal;text-indent:0;text-align:start;text-decoration:none;line-height:normal;letter-spacing:normal;word-spacing:normal;text-transform:none;direction:ltr;block-progression:tb;writing-mode:lr-tb;text-anchor:start;baseline-shift:baseline;color:#000000;fill:#28c300;fill-opacity:1;stroke:#000000;stroke-width:0.5;stroke-miterlimit:4;stroke-opacity:1;stroke-dasharray:none;marker:none;visibility:visible;display:inline;overflow:visible;enable-background:accumulate;font-family:Sans;-inkscape-font-specification:Sans"
       d="m 15.402067,1024.6176 c -0.524475,-0.025 -1.064644,0.041 -1.56008,0.1766 l -0.08831,0.029 c -1.040252,0.3178 -1.777562,1.0886 -2.207661,1.9429 -0.442919,0.8798 -0.596041,1.8662 -0.529839,2.7967 0.132795,1.8661 1.175232,3.9123 3.090726,5.6521 1.526026,1.3861 2.866571,4.151 3.179032,6.8886 0.144196,1.2635 0.0049,3.274 -0.176613,5.0929 -0.332702,-0.4041 -0.688782,-0.7742 -1.059677,-1.1186 -1.011448,-0.9394 -2.287433,-1.4121 -3.591129,-1.8547 -1.303696,-0.4425 -2.6399536,-0.8478 -3.767742,-1.4424 -2.0837802,-1.0989 -2.7153571,-3.4718 -2.502016,-4.5924 0.2129211,-1.1185 1.3115192,-1.7185 2.1782257,-1.8252 0.4808778,-0.059 1.0385649,-0.015 1.4423386,0.1471 0.4037737,0.162 0.6634587,0.3687 0.8241937,0.8832 0.138234,0.4425 0.01921,1.146 -0.206049,1.7369 -0.225257,0.5909 -0.5004028,1.0009 -0.5004028,1.0009 -0.2698664,0.4162 -0.1218525,1.0256 0.2943548,1.2953 0.416208,0.2698 1.025525,0.1513 1.295162,-0.265 0,0 0.375425,-0.563 0.677016,-1.3542 0.301591,-0.7912 0.583834,-1.8583 0.235484,-2.9732 -0.325849,-1.0429 -1.099071,-1.7635 -1.913307,-2.0902 -0.8142354,-0.3268 -1.6638644,-0.3536 -2.3842742,-0.2649 -1.5358687,0.1891 -3.3978966,1.2586 -3.7971772,3.356 -0.3988608,2.0953 0.5941604,5.1054 3.4733869,6.6236 1.353715,0.7138 2.7815225,1.1356 4.0326615,1.5603 1.251139,0.4247 2.309338,0.8534 2.943548,1.4424 1.031397,0.9456 1.149523,2.4575 1.483525,3.6504 l 3.481687,0.01 c 0,0 -0.105668,-0.6092 -0.108348,-0.7107 0.04464,-0.8416 0.248724,-2.4073 1.206854,-3.2972 1.621128,-1.5056 1.561264,-1.3602 4.062097,-2.6788 2.879226,-1.5182 3.525008,-4.5937 3.126147,-6.6889 -0.399281,-2.0975 -1.914069,-3.0722 -3.449937,-3.2613 -0.72041,-0.089 -1.570039,-0.062 -2.384274,0.2649 -0.814236,0.3267 -1.587458,1.0179 -1.913307,2.0607 -0.34835,1.1149 -0.06611,2.1822 0.235484,2.9733 0.301591,0.7911 0.677016,1.3836 0.677016,1.3836 0.269637,0.4163 0.90839,0.5348 1.324597,0.265 0.416207,-0.2697 0.534786,-0.8791 0.264919,-1.2953 0,0 -0.275146,-0.4396 -0.500403,-1.0304 -0.225257,-0.591 -0.344282,-1.2945 -0.206048,-1.7368 0.160734,-0.5145 0.420419,-0.7212 0.824193,-0.8832 0.403774,-0.162 0.961461,-0.2064 1.442339,-0.1472 0.866706,0.1067 1.618065,0.6415 1.830986,1.7599 0.21334,1.1207 -0.071,3.5884 -2.154776,4.6871 -2.462174,1.2982 -2.774569,1.3927 -4.444758,2.9439 -0.0406,0.038 -0.07802,0.079 -0.117742,0.1177 -0.07647,-1.4145 -0.167457,-2.8328 -0.294355,-3.9447 -0.362234,-3.1738 -1.787445,-6.2703 -3.797177,-8.0956 -1.620266,-1.4717 -2.41445,-3.1557 -2.502016,-4.3863 -0.04398,-0.6181 0.09498,-1.2828 0.353226,-1.7958 0.258247,-0.513 0.589829,-0.8554 1.118548,-1.0009 0.626696,-0.1726 1.316162,-0.1391 1.795564,0.089 0.479403,0.2272 0.829776,0.5905 0.971371,1.4425 0.06369,0.3831 0.0062,0.5353 -0.05887,0.6476 -0.06505,0.1124 -0.183462,0.2111 -0.353225,0.2944 -0.339528,0.1664 -0.794759,0.1766 -0.794759,0.1766 -0.493284,0.01 -0.920207,0.4487 -0.912499,0.9421 0.0077,0.4933 0.448656,0.9498 0.941935,0.942 0,0 0.777774,0.015 1.589516,-0.3827 0.405872,-0.1989 0.85024,-0.5163 1.147984,-1.0304 0.297744,-0.5139 0.414481,-1.1908 0.294355,-1.9134 -0.226052,-1.36 -1.039701,-2.3564 -2.031049,-2.8261 -0.495673,-0.2349 -1.006169,-0.3577 -1.530645,-0.3828 z"
       id="path2994"
       inkscape:connector-curvature="0"
       sodipodi:nodetypes="cccccccccccccccscccsscssssccccccscccscccccsscsccscsscccccccccccccc" />
    <rect
       style="color:#000000;fill:#ef0000;fill-opacity:1;fill-rule:nonzero;stroke:none;stroke-width:0;marker:none;visibility:visible;display:inline;overflow:visible;enable-background:accumulate"
       id="rect3813-76"
       width="2"
       height="2"
       x="14"
       y="1021.3622"
       rx="0"
       ry="2" />
    <rect
       style="color:#000000;fill:#ef0000;fill-opacity:1;fill-rule:nonzero;stroke:none;stroke-width:0;marker:none;visibility:visible;display:inline;overflow:visible;enable-background:accumulate"
       id="rect3813-76-1"
       width="2"
       height="2"
       x="18"
       y="1022.3622"
       rx="0"
       ry="2" />
    <rect
       style="color:#000000;fill:#ef0000;fill-opacity:1;fill-rule:nonzero;stroke:none;stroke-width:0;marker:none;visibility:visible;display:inline;overflow:visible;enable-background:accumulate"
       id="rect3813-76-4"
       width="2"
       height="2"
       x="20"
       y="1025.3622"
       rx="0"
       ry="2" />
    <rect
       style="color:#000000;fill:#ef0000;fill-opacity:1;fill-rule:nonzero;stroke:none;stroke-width:0;marker:none;visibility:visible;display:inline;overflow:visible;enable-background:accumulate"
       id="rect3813-76-2"
       width="2"
       height="2"
       x="20"
       y="1029.3622"
       rx="0"
       ry="2" />
    <rect
       style="color:#000000;fill:#ef0000;fill-opacity:1;fill-rule:nonzero;stroke:none;stroke-width:0;marker:none;visibility:visible;display:inline;overflow:visible;enable-background:accumulate"
       id="rect3813-76-3"
       width="2"
       height="2"
       x="17"
       y="1032.3622"
       rx="0"
       ry="2" />
    <rect
       style="color:#000000;fill:#ef0000;fill-opacity:1;fill-rule:nonzero;stroke:none;stroke-width:0;marker:none;visibility:visible;display:inline;overflow:visible;enable-background:accumulate"
       id="rect3813-76-22"
       width="2"
       height="2"
       x="10"
       y="1022.3622"
       rx="0"
       ry="2" />
    <rect
       style="color:#000000;fill:#ef0000;fill-opacity:1;fill-rule:nonzero;stroke:none;stroke-width:0;marker:none;visibility:visible;display:inline;overflow:visible;enable-background:accumulate"
       id="rect3813-76-16"
       width="2"
       height="2"
       x="8"
       y="1025.3622"
       rx="0"
       ry="2" />
    <rect
       style="color:#000000;fill:#ef0000;fill-opacity:1;fill-rule:nonzero;stroke:none;stroke-width:0;marker:none;visibility:visible;display:inline;overflow:visible;enable-background:accumulate"
       id="rect3813-76-8"
       width="2"
       height="2"
       x="8"
       y="1031.3622"
       rx="0"
       ry="2" />
    <rect
       style="color:#000000;fill:#ef0000;fill-opacity:1;fill-rule:nonzero;stroke:none;stroke-width:0;marker:none;visibility:visible;display:inline;overflow:visible;enable-background:accumulate"
       id="rect3813-76-5"
       width="2"
       height="2"
       x="14"
       y="1027.3622"
       rx="0"
       ry="2" />
    <rect
       style="color:#000000;fill:#ef0000;fill-opacity:1;fill-rule:nonzero;stroke:none;stroke-width:0;marker:none;visibility:visible;display:inline;overflow:visible;enable-background:accumulate"
       id="rect3813-76-7"
       width="2"
       height="2"
       x="23"
       y="1031.3622"
       rx="0"
       ry="2" />
    <rect
       style="color:#000000;fill:#ef0000;fill-opacity:1;fill-rule:nonzero;stroke:none;stroke-width:0;marker:none;visibility:visible;display:inline;overflow:visible;enable-background:accumulate"
       id="rect3813-76-6"
       width="2"
       height="2"
       x="27"
       y="1032.3622"
       rx="0"
       ry="2" />
    <rect
       style="color:#000000;fill:#ef0000;fill-opacity:1;fill-rule:nonzero;stroke:none;stroke-width:0;marker:none;visibility:visible;display:inline;overflow:visible;enable-background:accumulate"
       id="rect3813-76-18"
       width="2"
       height="2"
       x="29"
       y="1035.3622"
       rx="0"
       ry="2" />
    <rect
       style="color:#000000;fill:#ef0000;fill-opacity:1;fill-rule:nonzero;stroke:none;stroke-width:0;marker:none;visibility:visible;display:inline;overflow:visible;enable-background:accumulate"
       id="rect3813-76-9"
       width="2"
       height="2"
       x="29"
       y="1039.3622"
       rx="0"
       ry="2" />
    <rect
       style="color:#000000;fill:#ef0000;fill-opacity:1;fill-rule:nonzero;stroke:none;stroke-width:0;marker:none;visibility:visible;display:inline;overflow:visible;enable-background:accumulate"
       id="rect3813-76-27"
       width="2"
       height="2"
       x="28"
       y="1043.3622"
       rx="0"
       ry="2" />
    <rect
       style="color:#000000;fill:#ef0000;fill-opacity:1;fill-rule:nonzero;stroke:none;stroke-width:0;marker:none;visibility:visible;display:inline;overflow:visible;enable-background:accumulate"
       id="rect3813-76-95"
       width="2"
       height="2"
       x="23"
       y="1037.3622"
       rx="0"
       ry="2" />
    <rect
       style="color:#000000;fill:#ef0000;fill-opacity:1;fill-rule:nonzero;stroke:none;stroke-width:0;marker:none;visibility:visible;display:inline;overflow:visible;enable-background:accumulate"
       id="rect3813-76-43"
       width="2"
       height="2"
       x="7"
       y="1037.3622"
       rx="0"
       ry="2" />
    <rect
       style="color:#000000;fill:#ef0000;fill-opacity:1;fill-rule:nonzero;stroke:none;stroke-width:0;marker:none;visibility:visible;display:inline;overflow:visible;enable-background:accumulate"
       id="rect3813-76-12"
       width="2"
       height="2"
       x="13"
       y="1039.3622"
       rx="0"
       ry="2" />
    <rect
       style="color:#000000;fill:#ef0000;fill-opacity:1;fill-rule:nonzero;stroke:none;stroke-width:0;marker:none;visibility:visible;display:inline;overflow:visible;enable-background:accumulate"
       id="rect3813-76-33"
       width="2"
       height="2"
       x="4"
       y="1031.3622"
       rx="0"
       ry="2" />
    <rect
       style="color:#000000;fill:#ef0000;fill-opacity:1;fill-rule:nonzero;stroke:none;stroke-width:0;marker:none;visibility:visible;display:inline;overflow:visible;enable-background:accumulate"
       id="rect3813-76-41"
       width="2"
       height="2"
       x="1"
       y="1034.3622"
       rx="0"
       ry="2" />
    <rect
       style="color:#000000;fill:#ef0000;fill-opacity:1;fill-rule:nonzero;stroke:none;stroke-width:0;marker:none;visibility:visible;display:inline;overflow:visible;enable-background:accumulate"
       id="rect3813-76-13"
       width="2"
       height="2"
       x="2"
       y="1042.3622"
       rx="0"
       ry="2" />
    <rect
       style="color:#000000;fill:#ef0000;fill-opacity:1;fill-rule:nonzero;stroke:none;stroke-width:0;marker:none;visibility:visible;display:inline;overflow:visible;enable-background:accumulate"
       id="rect3813-76-87"
       width="2"
       height="2"
       x="1"
       y="1038.3622"
       rx="0"
       ry="2" />
  </g>
  <g
     inkscape:groupmode="layer"
     id="layer2"
     inkscape:label="Circle"
     style="display:none">
    <path
       sodipodi:type="arc"
       style="color:#000000;fill:#ffffff;fill-opacity:1;fill-rule:nonzero;stroke:#000000;stroke-width:6.75000048;stroke-linecap:round;stroke-linejoin:miter;stroke-miterlimit:4;stroke-opacity:1;stroke-dasharray:none;stroke-dashoffset:0;marker:none;visibility:visible;display:inline;overflow:visible;enable-background:accumulate"
       id="path3755"
       sodipodi:cx="117.68277"
       sodipodi:cy="114.07357"
       sodipodi:rx="13.637059"
       sodipodi:ry="13.637059"
       d="m 131.31983,114.07357 a 13.637059,13.637059 0 1 1 -27.27412,0 13.637059,13.637059 0 1 1 27.27412,0 z"
       transform="matrix(0.14814814,0,0,0.14814814,-1.4344835,-0.8998)" />
  </g>
</svg>
