<?xml version="1.0" encoding="UTF-8" standalone="no"?>
<!-- Created with Inkscape (http://www.inkscape.org/) -->

<svg
   xmlns:dc="http://purl.org/dc/elements/1.1/"
   xmlns:cc="http://creativecommons.org/ns#"
   xmlns:rdf="http://www.w3.org/1999/02/22-rdf-syntax-ns#"
   xmlns:svg="http://www.w3.org/2000/svg"
   xmlns="http://www.w3.org/2000/svg"
   xmlns:sodipodi="http://sodipodi.sourceforge.net/DTD/sodipodi-0.dtd"
   xmlns:inkscape="http://www.inkscape.org/namespaces/inkscape"
   width="32"
   height="32"
   id="svg2"
   version="1.1"
   inkscape:version="0.92.4 (5da689c313, 2019-01-14)"
   sodipodi:docname="ToadQueenTex.svg"
   inkscape:export-filename="C:\Data\Private\Unity\TurnBasedRPG\Assets\Textures\Resources\Creatures\ToadQueenTex.png"
   inkscape:export-xdpi="96"
   inkscape:export-ydpi="96">
  <defs
     id="defs4">
    <linearGradient
       id="linearGradient3772">
      <stop
         style="stop-color:#2c4b1c;stop-opacity:1"
         offset="0"
         id="stop3774" />
      <stop
         id="stop3759"
         offset="0.6605044"
         style="stop-color:#5e8f43;stop-opacity:1" />
      <stop
         style="stop-color:#66ab3f;stop-opacity:0;"
         offset="1"
         id="stop3776" />
    </linearGradient>
  </defs>
  <sodipodi:namedview
     id="base"
     pagecolor="#ffffff"
     bordercolor="#666666"
     borderopacity="1.0"
     inkscape:pageopacity="0"
     inkscape:pageshadow="2"
     inkscape:zoom="7.919596"
     inkscape:cx="20.506925"
     inkscape:cy="6.1577256"
     inkscape:document-units="px"
     inkscape:current-layer="layer1"
     showgrid="false"
     inkscape:window-width="1920"
     inkscape:window-height="1013"
     inkscape:window-x="-9"
     inkscape:window-y="-9"
     inkscape:window-maximized="1"
     inkscape:snap-bbox="false"
     inkscape:snap-nodes="true"
     inkscape:bbox-nodes="true"
     inkscape:snap-page="true"
     inkscape:snap-global="false"
     inkscape:object-nodes="true"
     inkscape:object-paths="true"
     borderlayer="true" />
  <metadata
     id="metadata7">
    <rdf:RDF>
      <cc:Work
         rdf:about="">
        <dc:format>image/svg+xml</dc:format>
        <dc:type
           rdf:resource="http://purl.org/dc/dcmitype/StillImage" />
        <dc:title />
      </cc:Work>
    </rdf:RDF>
  </metadata>
  <g
     inkscape:label="Ebene 1"
     inkscape:groupmode="layer"
     id="layer1"
     transform="translate(0,-1020.3622)"
     style="display:inline">
    <g
       id="g950"
       transform="translate(0.53636489,1.7678816e-5)">
      <circle
         r="1.3880305"
         cy="1035.7578"
         cx="7.481442"
         id="path822-32-8-7"
         style="display:inline;opacity:1;vector-effect:none;fill:#ffffff;fill-opacity:1;fill-rule:nonzero;stroke:#29463f;stroke-width:0.5;stroke-linecap:round;stroke-linejoin:round;stroke-miterlimit:4;stroke-dasharray:none;stroke-dashoffset:0;stroke-opacity:1;marker:none" />
      <circle
         r="1.3880305"
         cy="1037.655"
         cx="4.3716016"
         id="path822-32-0-4-5"
         style="display:inline;opacity:1;vector-effect:none;fill:#ffffff;fill-opacity:1;fill-rule:nonzero;stroke:#29463f;stroke-width:0.5;stroke-linecap:round;stroke-linejoin:round;stroke-miterlimit:4;stroke-dasharray:none;stroke-dashoffset:0;stroke-opacity:1;marker:none" />
      <circle
         r="1.3880305"
         cy="1042.6472"
         cx="2.1988766"
         id="path822-32-0-4-1"
         style="display:inline;opacity:1;vector-effect:none;fill:#ffffff;fill-opacity:1;fill-rule:nonzero;stroke:#29463f;stroke-width:0.5;stroke-linecap:round;stroke-linejoin:round;stroke-miterlimit:4;stroke-dasharray:none;stroke-dashoffset:0;stroke-opacity:1;marker:none" />
      <circle
         r="1.3880305"
         cy="1040.1272"
         cx="2.6647263"
         id="path822-32-0-4"
         style="display:inline;opacity:1;vector-effect:none;fill:#ffffff;fill-opacity:1;fill-rule:nonzero;stroke:#29463f;stroke-width:0.5;stroke-linecap:round;stroke-linejoin:round;stroke-miterlimit:4;stroke-dasharray:none;stroke-dashoffset:0;stroke-opacity:1;marker:none" />
      <path
         sodipodi:nodetypes="cccccccc"
         inkscape:connector-curvature="0"
         id="rect884"
         d="m 14.475624,1025.5593 3.539907,2.9154 0.132586,-3.9984 2.760897,2.8248 1.179342,-3.9868 1.653338,7.9274 -5.759122,1.6869 z"
         style="opacity:1;vector-effect:none;fill:#f6db1e;fill-opacity:1;fill-rule:nonzero;stroke:#29463f;stroke-width:0.5;stroke-linecap:round;stroke-linejoin:round;stroke-miterlimit:4;stroke-dasharray:none;stroke-dashoffset:0;stroke-opacity:1;marker:none" />
      <circle
         r="2.0089285"
         cy="1031.5256"
         cx="22.021606"
         id="path886"
         style="opacity:1;vector-effect:none;fill:#ffffff;fill-opacity:1;fill-rule:nonzero;stroke:#29463f;stroke-width:0;stroke-linecap:round;stroke-linejoin:round;stroke-miterlimit:4;stroke-dasharray:none;stroke-dashoffset:0;stroke-opacity:1;marker:none" />
      <circle
         r="1.3880305"
         cy="1044.2264"
         cx="3.2716062"
         id="path822-9"
         style="display:inline;opacity:1;vector-effect:none;fill:#ffffff;fill-opacity:1;fill-rule:nonzero;stroke:#29463f;stroke-width:0.5;stroke-linecap:round;stroke-linejoin:round;stroke-miterlimit:4;stroke-dasharray:none;stroke-dashoffset:0;stroke-opacity:1;marker:none" />
      <g
         transform="translate(0.2606625,5.1023874)"
         id="g857">
        <path
           inkscape:connector-curvature="0"
           id="path839"
           d="m 4.2820576,1044.4547 c -0.2217695,-0.1554 -0.2408868,-0.3474 -0.1649438,-1.6564 0.2682363,-4.6238 1.9229456,-8.422 4.9840427,-11.4405 0.9208325,-0.908 1.0505065,-1.0192 2.2116905,-1.8969 1.722039,-1.3016 4.100324,-2.4359 6.357209,-3.0322 0.416773,-0.1101 0.771755,-0.2141 0.78885,-0.2312 0.01709,-0.017 0.07693,-0.2277 0.132976,-0.4679 0.139439,-0.5977 0.409323,-1.0712 0.870958,-1.5279 0.860515,-0.8513 2.001098,-1.1647 3.156211,-0.8673 1.120175,0.2884 2.08081,1.2551 2.349768,2.3647 0.04648,0.1917 0.107135,0.3739 0.134796,0.4048 0.02766,0.031 0.454771,0.146 0.949135,0.2557 1.117714,0.2479 2.455819,0.6491 2.935598,0.8802 1.072616,0.5167 1.421432,1.6961 0.834152,2.8204 -1.028566,1.9691 -3.687713,4.3336 -6.687944,5.947 -0.490525,0.2638 -0.888888,0.5219 -0.888888,0.576 0,0.054 0.203786,1.3447 0.452859,2.8685 0.249071,1.5237 0.471362,2.8959 0.493978,3.0492 0.06301,0.4274 0.280607,0.8252 0.53276,0.9742 0.185686,0.1097 0.411896,0.1415 1.227293,0.1727 0.8834,0.034 1.01114,0.054 1.098467,0.1737 0.143908,0.1971 0.121643,0.371 -0.07231,0.565 l -0.171124,0.1711 H 15.118316 c -9.3136892,0 -10.708192,-0.013 -10.8362584,-0.1029 z M 22.524538,1027.873 c 0.567062,-0.2856 0.912203,-0.9973 0.801463,-1.6528 -0.068,-0.4025 -0.437532,-0.9027 -0.806172,-1.0912 -0.411711,-0.2106 -0.99679,-0.2163 -1.427303,-0.014 -0.992837,0.4667 -1.177097,1.8653 -0.337356,2.5607 0.531869,0.4404 1.149635,0.5093 1.769368,0.1972 z m -1.070682,-0.3951 c -0.406929,-0.1281 -0.672253,-0.5116 -0.672253,-0.9715 0,-0.2778 0.0022,-0.2801 0.254808,-0.2706 0.324037,0.012 0.539659,-0.2176 0.476034,-0.5073 -0.03396,-0.1546 -0.01335,-0.2008 0.106584,-0.2389 0.333143,-0.1057 0.898253,0.1853 1.07238,0.5522 0.306741,0.6465 -0.07583,1.3771 -0.766808,1.4645 -0.149342,0.019 -0.361177,0.01 -0.470745,-0.028 z"
           style="fill:#94c634;stroke-width:1" />
        <path
           inkscape:connector-curvature="0"
           id="path835"
           d="m 4.3438088,1044.3794 c -0.1446328,-0.1013 -0.1548276,-0.1605 -0.1531486,-0.8889 0.0085,-3.6885 1.3442045,-7.7231 3.3937524,-10.2762 0.514999,-0.6415 1.0611862,-1.2509 1.6305632,-1.8103 0.5395158,-0.53 1.1004232,-1.014 1.6552602,-1.478 1.558281,-1.3032 4.353073,-2.7548 6.842401,-3.4157 0.428967,-0.1139 0.793767,-0.2209 0.810665,-0.2378 0.0169,-0.017 0.09439,-0.2626 0.172213,-0.5461 0.353743,-1.2885 1.294495,-2.147 2.592637,-2.366 1.626589,-0.2744 3.220648,0.7991 3.604473,2.4273 0.04765,0.2021 0.138244,0.3942 0.20133,0.4269 0.06309,0.033 0.444118,0.1279 0.846735,0.2114 0.826919,0.1717 0.816462,0.1689 2.067093,0.56 1.283683,0.4015 1.785494,0.81 1.977417,1.6101 0.167881,0.6998 -0.09187,1.373 -0.991732,2.5701 -1.280868,1.7041 -3.555344,3.5267 -6.026657,4.8293 -0.42778,0.2255 -0.791302,0.4481 -0.807827,0.4947 -0.01653,0.047 0.121284,0.9946 0.306241,2.1066 0.184958,1.112 0.384579,2.3355 0.443603,2.7189 0.295998,1.923 0.342731,2.0518 0.82377,2.2702 0.234242,0.1063 0.458009,0.1323 1.149485,0.1336 0.968523,0 1.128325,0.051 1.128325,0.3509 0,0.3787 -0.200724,0.437 -1.354168,0.3934 -0.718975,-0.027 -1.069491,-0.07 -1.220627,-0.1477 -0.310723,-0.1607 -0.692734,-0.5149 -0.822174,-0.7623 -0.148721,-0.2843 -0.294399,-0.9123 -0.250526,-1.0801 0.0191,-0.073 4.18e-4,-0.1969 -0.04147,-0.2752 -0.04191,-0.078 -0.168775,-0.7011 -0.281932,-1.384 -0.784674,-4.7357 -0.771876,-4.6444 -0.672534,-4.796 0.0521,-0.08 0.504518,-0.3536 1.005371,-0.6091 2.898293,-1.4782 5.36977,-3.5637 6.541379,-5.5198 0.280985,-0.4692 0.337691,-0.6206 0.333561,-0.8909 -0.006,-0.3924 -0.253166,-0.759 -0.643949,-0.9551 -0.594463,-0.2983 -2.704175,-0.8846 -3.66521,-1.0186 -0.650933,-0.091 -0.690315,-0.133 -0.770266,-0.8268 -0.111796,-0.9701 -0.849568,-1.785 -1.844616,-2.0375 -0.783465,-0.1988 -1.62024,0.038 -2.205251,0.6253 -0.454133,0.4556 -0.671566,0.9089 -0.72723,1.5162 -0.0251,0.2738 -0.08732,0.521 -0.145669,0.5787 -0.05602,0.055 -0.352839,0.152 -0.659595,0.2148 -1.070146,0.2188 -2.855053,0.8607 -4.068549,1.463 -2.975876,1.477 -5.2399541,3.4472 -6.928909,6.0293 -1.0101069,1.5443 -1.8575905,3.6314 -2.2467795,5.5331 -0.2649359,1.2946 -0.2050317,1.2854 0.5445918,-0.084 2.3701145,-4.3293 5.3769667,-6.9044 8.7673367,-7.5085 1.949013,-0.3473 3.095733,0.054 3.73007,1.306 0.25158,0.4964 0.326746,0.9938 0.236026,1.5617 -0.08791,0.5503 -0.396488,1.3297 -0.715929,1.8084 -0.123301,0.1847 -0.255557,0.3853 -0.293902,0.4456 -0.03834,0.06 -0.236555,0.3224 -0.440468,0.5824 -1.53445,1.9565 -4.509609,3.8937 -7.6816091,5.0016 -0.7746112,0.2705 -0.9113361,0.3513 -0.7213625,0.426 0.07082,0.028 1.9342716,0.053 4.1410016,0.056 3.022107,0 4.032881,0.025 4.095897,0.089 0.04601,0.046 0.08366,0.1879 0.08366,0.3154 0,0.1847 -0.03636,0.2456 -0.178832,0.2998 -0.111262,0.042 -2.489381,0.068 -6.293912,0.068 -5.4217903,0 -6.1326478,-0.012 -6.2700282,-0.1085 z m 2.59889,-1.2159 c 1.3382736,-0.3434 2.3333131,-0.6769 3.5566542,-1.1918 3.696921,-1.5562 6.6711,-4.1848 7.250185,-6.4077 0.244817,-0.9398 -0.08828,-1.7421 -0.906968,-2.1847 -0.585047,-0.3163 -2.262918,-0.1372 -3.577159,0.3819 -2.744766,1.0839 -5.1375541,3.6157 -7.0758714,7.4869 -0.5727918,1.1439 -0.973534,2.1075 -0.9155324,2.2014 0.059986,0.097 0.4093026,0.037 1.6686916,-0.286 z m 14.2170242,-15.983 c -0.18485,-0.1694 -0.257322,-0.3014 -0.287025,-0.5229 -0.03953,-0.2947 -0.03858,-0.2962 0.181764,-0.2962 0.291157,0 0.56375,-0.2682 0.56375,-0.5546 0,-0.1902 0.02215,-0.2123 0.212614,-0.2123 0.596347,0 0.998634,0.5706 0.833814,1.1827 -0.111413,0.4137 -0.412897,0.6299 -0.878508,0.6299 -0.330545,0 -0.410805,-0.029 -0.626409,-0.2266 z"
           style="fill:#29463f;fill-opacity:1;stroke-width:1"
           sodipodi:nodetypes="cssssccccccccccccscccsccccccccccccccccccccccccccccccccscsccccccccccccssscsc" />
      </g>
      <circle
         r="1.3880305"
         cy="1045.2026"
         cx="4.7774763"
         id="path822"
         style="opacity:1;vector-effect:none;fill:#ffffff;fill-opacity:1;fill-rule:nonzero;stroke:#29463f;stroke-width:0.5;stroke-linecap:round;stroke-linejoin:round;stroke-miterlimit:4;stroke-dasharray:none;stroke-dashoffset:0;stroke-opacity:1;marker:none" />
      <circle
         r="1.3880305"
         cy="1043.4883"
         cx="6.0403929"
         id="path822-8"
         style="display:inline;opacity:1;vector-effect:none;fill:#ffffff;fill-opacity:1;fill-rule:nonzero;stroke:#29463f;stroke-width:0.5;stroke-linecap:round;stroke-linejoin:round;stroke-miterlimit:4;stroke-dasharray:none;stroke-dashoffset:0;stroke-opacity:1;marker:none" />
      <circle
         r="1.3880305"
         cy="1039.7167"
         cx="4.7885342"
         id="path822-3"
         style="display:inline;opacity:1;vector-effect:none;fill:#ffffff;fill-opacity:1;fill-rule:nonzero;stroke:#29463f;stroke-width:0.5;stroke-linecap:round;stroke-linejoin:round;stroke-miterlimit:4;stroke-dasharray:none;stroke-dashoffset:0;stroke-opacity:1;marker:none" />
      <circle
         r="1.3880305"
         cy="1041.4139"
         cx="7.5126777"
         id="path822-4"
         style="display:inline;opacity:1;vector-effect:none;fill:#ffffff;fill-opacity:1;fill-rule:nonzero;stroke:#29463f;stroke-width:0.5;stroke-linecap:round;stroke-linejoin:round;stroke-miterlimit:4;stroke-dasharray:none;stroke-dashoffset:0;stroke-opacity:1;marker:none" />
      <circle
         r="1.3880305"
         cy="1042.1283"
         cx="3.5841064"
         id="path822-0"
         style="display:inline;opacity:1;vector-effect:none;fill:#ffffff;fill-opacity:1;fill-rule:nonzero;stroke:#29463f;stroke-width:0.5;stroke-linecap:round;stroke-linejoin:round;stroke-miterlimit:4;stroke-dasharray:none;stroke-dashoffset:0;stroke-opacity:1;marker:none" />
      <circle
         r="1.3880305"
         cy="1041.3661"
         cx="5.3274212"
         id="path822-32"
         style="display:inline;opacity:1;vector-effect:none;fill:#ffffff;fill-opacity:1;fill-rule:nonzero;stroke:#29463f;stroke-width:0.5;stroke-linecap:round;stroke-linejoin:round;stroke-miterlimit:4;stroke-dasharray:none;stroke-dashoffset:0;stroke-opacity:1;marker:none" />
      <circle
         r="1.3880305"
         cy="1037.4493"
         cx="6.1294661"
         id="path822-32-0"
         style="display:inline;opacity:1;vector-effect:none;fill:#ffffff;fill-opacity:1;fill-rule:nonzero;stroke:#29463f;stroke-width:0.5;stroke-linecap:round;stroke-linejoin:round;stroke-miterlimit:4;stroke-dasharray:none;stroke-dashoffset:0;stroke-opacity:1;marker:none" />
      <circle
         r="1.3880305"
         cy="1035.884"
         cx="9.7542849"
         id="path822-32-8-0"
         style="display:inline;opacity:1;vector-effect:none;fill:#ffffff;fill-opacity:1;fill-rule:nonzero;stroke:#29463f;stroke-width:0.5;stroke-linecap:round;stroke-linejoin:round;stroke-miterlimit:4;stroke-dasharray:none;stroke-dashoffset:0;stroke-opacity:1;marker:none" />
      <circle
         r="1.3880305"
         cy="1037.5887"
         cx="8.5231619"
         id="path822-32-8"
         style="display:inline;opacity:1;vector-effect:none;fill:#ffffff;fill-opacity:1;fill-rule:nonzero;stroke:#29463f;stroke-width:0.5;stroke-linecap:round;stroke-linejoin:round;stroke-miterlimit:4;stroke-dasharray:none;stroke-dashoffset:0;stroke-opacity:1;marker:none" />
      <circle
         r="1.3880305"
         cy="1039.3604"
         cx="7.3341064"
         id="path822-7"
         style="display:inline;opacity:1;vector-effect:none;fill:#ffffff;fill-opacity:1;fill-rule:nonzero;stroke:#29463f;stroke-width:0.5;stroke-linecap:round;stroke-linejoin:round;stroke-miterlimit:4;stroke-dasharray:none;stroke-dashoffset:0;stroke-opacity:1;marker:none" />
    </g>
  </g>
</svg>
