<?xml version="1.0" encoding="UTF-8" standalone="no"?>
<!-- Created with Inkscape (http://www.inkscape.org/) -->

<svg
   xmlns:dc="http://purl.org/dc/elements/1.1/"
   xmlns:cc="http://creativecommons.org/ns#"
   xmlns:rdf="http://www.w3.org/1999/02/22-rdf-syntax-ns#"
   xmlns:svg="http://www.w3.org/2000/svg"
   xmlns="http://www.w3.org/2000/svg"
   xmlns:sodipodi="http://sodipodi.sourceforge.net/DTD/sodipodi-0.dtd"
   xmlns:inkscape="http://www.inkscape.org/namespaces/inkscape"
   width="32"
   height="32"
   id="svg2"
   version="1.1"
   inkscape:version="0.92.4 (5da689c313, 2019-01-14)"
   sodipodi:docname="BoobyTrapTex.svg"
   inkscape:export-filename="C:\Data\Private\Unity\TurnBasedRPG\Assets\Textures\Resources\Items\BoobyTrapTex.png"
   inkscape:export-xdpi="96"
   inkscape:export-ydpi="96">
  <defs
     id="defs4">
    <inkscape:path-effect
       effect="envelope"
       id="path-effect4004"
       is_visible="true"
       yy="true"
       xx="false"
       bendpath1="m -14.558697,1220.5256 c 2.66717,3.5257 7.53761,3.4539 10.3866301,0.3207"
       bendpath2="m -4.4062015,1220.7394 c 0.1608855,5.9593 0.027835,7.9866 0,11.0121"
       bendpath3="m -14.168473,1231.7515 c 3.241242,2.86 6.8960369,2.6005 10.0744509,-0.3207"
       bendpath4="m -14.168473,1220.7394 0,11.0121"
       bendpath3-nodetypes="cc"
       bendpath1-nodetypes="cc"
       bendpath2-nodetypes="cc" />
  </defs>
  <sodipodi:namedview
     id="base"
     pagecolor="#ffffff"
     bordercolor="#666666"
     borderopacity="1.0"
     inkscape:pageopacity="0"
     inkscape:pageshadow="2"
     inkscape:zoom="11.313709"
     inkscape:cx="22.527294"
     inkscape:cy="5.4934303"
     inkscape:document-units="px"
     inkscape:current-layer="layer1"
     showgrid="false"
     inkscape:window-width="1920"
     inkscape:window-height="1013"
     inkscape:window-x="-9"
     inkscape:window-y="-9"
     inkscape:window-maximized="1"
     inkscape:snap-bbox="true"
     inkscape:snap-nodes="true"
     inkscape:bbox-nodes="true"
     inkscape:snap-page="true"
     inkscape:object-nodes="true"
     inkscape:snap-global="false"
     inkscape:object-paths="true"
     inkscape:snap-bbox-edge-midpoints="true" />
  <metadata
     id="metadata7">
    <rdf:RDF>
      <cc:Work
         rdf:about="">
        <dc:format>image/svg+xml</dc:format>
        <dc:type
           rdf:resource="http://purl.org/dc/dcmitype/StillImage" />
        <dc:title />
      </cc:Work>
    </rdf:RDF>
  </metadata>
  <g
     inkscape:label="Ebene 1"
     inkscape:groupmode="layer"
     id="layer1"
     transform="translate(0,-1020.3622)"
     style="display:inline">
    <path
       style="opacity:1;vector-effect:none;fill:#c8c8c8;fill-opacity:1;fill-rule:nonzero;stroke:#000000;stroke-width:0.60000002;stroke-linecap:butt;stroke-linejoin:bevel;stroke-miterlimit:4;stroke-dasharray:none;stroke-dashoffset:0;stroke-opacity:1;marker:none"
       d="m 27.7,1042.3622 c 0,3.148 -5.238268,5.7 -11.7,5.7 -6.4617317,0 -11.6999994,-2.552 -11.6999998,-5.7 v -6 H 27.7 c 0,0 -3e-6,2.852 -3e-6,6 z"
       id="path819"
       inkscape:connector-curvature="0"
       sodipodi:nodetypes="csccccc" />
    <path
       inkscape:connector-curvature="0"
       style="display:inline;opacity:1;vector-effect:none;fill:#c8c8c8;fill-opacity:1;fill-rule:nonzero;stroke:#000000;stroke-width:0.60000002;stroke-linecap:butt;stroke-linejoin:miter;stroke-miterlimit:4;stroke-dasharray:none;stroke-dashoffset:0;stroke-opacity:1;marker:none"
       d="m 27.7,1036.3622 c 0,3.148 -5.238268,5.7 -11.7,5.7 -6.4617318,0 -11.7000001,-2.552 -11.6999999,-5.7 -2e-7,-3.148 5.2382681,-5.7 11.6999999,-5.7 6.461732,0 11.7,2.552 11.7,5.7 z"
       id="path819-5"
       sodipodi:nodetypes="sssss" />
    <g
       id="g880"
       transform="translate(1.96875,-0.6875)">
      <path
         sodipodi:nodetypes="csccccc"
         inkscape:connector-curvature="0"
         id="path819-8"
         d="m 17.700001,1036.4807 c 0,0.977 -1.656546,1.769 -3.7,1.769 -2.043454,0 -3.7,-0.792 -3.7,-1.769 0,-0.2766 0.0037,-1.9411 0.0037,-1.9411 l 7.396299,0.079 c 0,0 -1e-6,0.8852 -2e-6,1.8621 z"
         style="opacity:1;vector-effect:none;fill:#dc0000;fill-opacity:1;fill-rule:nonzero;stroke:#000000;stroke-width:0.60000002;stroke-linecap:butt;stroke-linejoin:bevel;stroke-miterlimit:4;stroke-dasharray:none;stroke-dashoffset:0;stroke-opacity:1;marker:none" />
      <path
         inkscape:connector-curvature="0"
         id="path819-5-6"
         d="m 17.700001,1034.6186 a 3.7000003,1.7689656 0 0 1 -3.7,1.769 3.7000003,1.7689656 0 0 1 -3.7,-1.769 3.7000003,1.7689656 0 0 1 3.7,-1.7689 3.7000003,1.7689656 0 0 1 3.7,1.7689 z"
         style="display:inline;opacity:1;vector-effect:none;fill:#dc0000;fill-opacity:1;fill-rule:nonzero;stroke:#000000;stroke-width:0.60000002;stroke-linecap:round;stroke-linejoin:miter;stroke-miterlimit:4;stroke-dasharray:none;stroke-dashoffset:0;stroke-opacity:1;marker:none" />
    </g>
  </g>
</svg>
