<?xml version="1.0" encoding="UTF-8" standalone="no"?>
<!-- Created with Inkscape (http://www.inkscape.org/) -->

<svg
   xmlns:dc="http://purl.org/dc/elements/1.1/"
   xmlns:cc="http://creativecommons.org/ns#"
   xmlns:rdf="http://www.w3.org/1999/02/22-rdf-syntax-ns#"
   xmlns:svg="http://www.w3.org/2000/svg"
   xmlns="http://www.w3.org/2000/svg"
   xmlns:sodipodi="http://sodipodi.sourceforge.net/DTD/sodipodi-0.dtd"
   xmlns:inkscape="http://www.inkscape.org/namespaces/inkscape"
   width="32"
   height="32"
   id="svg2"
   version="1.1"
   inkscape:version="0.48.5 r10040"
   sodipodi:docname="CandleTex.svg"
   inkscape:export-filename="C:\Data\Private\Unity\TurnBasedRPG\Assets\Textures\Resources\Items\KeyTex.png"
   inkscape:export-xdpi="90"
   inkscape:export-ydpi="90">
  <defs
     id="defs4" />
  <sodipodi:namedview
     id="base"
     pagecolor="#ffffff"
     bordercolor="#666666"
     borderopacity="1.0"
     inkscape:pageopacity="0"
     inkscape:pageshadow="2"
     inkscape:zoom="7.9195959"
     inkscape:cx="-18.755498"
     inkscape:cy="22.77336"
     inkscape:document-units="px"
     inkscape:current-layer="layer1"
     showgrid="false"
     inkscape:window-width="1600"
     inkscape:window-height="848"
     inkscape:window-x="-8"
     inkscape:window-y="-8"
     inkscape:window-maximized="1"
     inkscape:snap-bbox="false"
     inkscape:snap-nodes="true"
     inkscape:bbox-nodes="true"
     inkscape:snap-page="true"
     inkscape:object-nodes="true" />
  <metadata
     id="metadata7">
    <rdf:RDF>
      <cc:Work
         rdf:about="">
        <dc:format>image/svg+xml</dc:format>
        <dc:type
           rdf:resource="http://purl.org/dc/dcmitype/StillImage" />
        <dc:title></dc:title>
      </cc:Work>
    </rdf:RDF>
  </metadata>
  <g
     inkscape:label="Ebene 1"
     inkscape:groupmode="layer"
     id="layer1"
     transform="translate(0,-1020.3622)"
     style="display:inline">
    <g
       id="g3780"
       transform="matrix(0.41858988,-0.41858988,0.41858988,0.41858988,-399.09425,585.33736)">
      <path
         id="rect2987"
         transform="translate(0,1020.3622)"
         d="m -57.59375,-0.75 c -2.987806,0 -5.650418,1.6342 -7.4375,4 -1.787081,2.3658 -2.8125,5.5126 -2.8125,8.9375 0,3.4249 1.025419,6.54045 2.8125,8.90625 1.787082,2.3659 4.449694,4 7.4375,4 2.987805,0 5.619169,-1.6341 7.40625,-4 1.386115,-1.834987 2.306548,-4.123431 2.65625,-6.65625 l 29.46875,0 0,-4.53125 -29.46875,0 C -47.884266,7.3789468 -48.80702,5.0775269 -50.1875,3.25 c -1.787081,-2.3658 -4.418445,-4 -7.40625,-4 z m 0,3.96875 c 1.572773,0 3.048397,0.81545 4.25,2.40625 1.201604,1.5907 2,3.9498 2,6.5625 0,2.6126 -0.798396,4.94045 -2,6.53125 -1.201603,1.5908 -2.677227,2.40625 -4.25,2.40625 -1.572774,0 -3.079647,-0.81545 -4.28125,-2.40625 -1.201604,-1.5908 -2.03125,-3.91865 -2.03125,-6.53125 0,-2.6127 0.829646,-4.9718 2.03125,-6.5625 1.201603,-1.5908 2.708476,-2.40625 4.28125,-2.40625 z"
         style="color:#000000;fill:#c5c5c5;fill-opacity:1;stroke:#000000;stroke-width:1.68925917;stroke-linecap:round;stroke-linejoin:miter;stroke-miterlimit:4;stroke-opacity:1;stroke-dasharray:none;stroke-dashoffset:0;marker:none;visibility:visible;display:inline;overflow:visible;enable-background:accumulate"
         inkscape:connector-curvature="0" />
      <rect
         y="1034.8108"
         x="-24.371204"
         height="8.117115"
         width="6.3147297"
         id="rect2987-1"
         style="color:#000000;fill:#c5c5c5;fill-opacity:1;stroke:#000000;stroke-width:1.68925917;stroke-linecap:round;stroke-linejoin:miter;stroke-miterlimit:4;stroke-opacity:1;stroke-dasharray:none;stroke-dashoffset:0;marker:none;visibility:visible;display:inline;overflow:visible;enable-background:accumulate" />
    </g>
  </g>
  <g
     inkscape:groupmode="layer"
     id="layer2"
     inkscape:label="Circle"
     style="display:none">
    <path
       sodipodi:type="arc"
       style="color:#000000;fill:#ffffff;fill-opacity:1;fill-rule:nonzero;stroke:#000000;stroke-width:6.75000048;stroke-linecap:round;stroke-linejoin:miter;stroke-miterlimit:4;stroke-opacity:1;stroke-dasharray:none;stroke-dashoffset:0;marker:none;visibility:visible;display:inline;overflow:visible;enable-background:accumulate"
       id="path3755"
       sodipodi:cx="117.68277"
       sodipodi:cy="114.07357"
       sodipodi:rx="13.637059"
       sodipodi:ry="13.637059"
       d="m 131.31983,114.07357 a 13.637059,13.637059 0 1 1 -27.27412,0 13.637059,13.637059 0 1 1 27.27412,0 z"
       transform="matrix(0.14814814,0,0,0.14814814,-1.4344835,-0.8998)" />
  </g>
</svg>
